c Вес дерева = 99356, диаметр = 20
p edge 750 749
e 1 4
e 1 88
e 1 522
e 2 495
e 2 594
e 3 709
e 4 276
e 5 200
e 6 425
e 7 192
e 7 507
e 7 514
e 7 710
e 8 745
e 9 175
e 9 235
e 9 700
e 10 99
e 10 156
e 10 194
e 10 272
e 10 545
e 10 662
e 10 727
e 11 256
e 11 510
e 11 733
e 12 228
e 12 266
e 12 472
e 12 514
e 13 171
e 13 465
e 14 617
e 15 76
e 15 635
e 16 141
e 16 195
e 17 126
e 17 233
e 17 323
e 17 733
e 18 331
e 19 220
e 19 467
e 20 248
e 20 501
e 21 394
e 22 517
e 23 56
e 23 201
e 23 450
e 23 608
e 24 122
e 24 251
e 24 342
e 24 461
e 25 363
e 25 528
e 25 632
e 26 386
e 27 286
e 27 392
e 27 483
e 27 487
e 28 402
e 29 409
e 30 519
e 31 520
e 31 531
e 32 242
e 32 290
e 33 89
e 34 126
e 35 155
e 35 392
e 36 77
e 37 475
e 37 664
e 38 189
e 38 567
e 38 661
e 39 528
e 40 387
e 40 529
e 41 523
e 41 531
e 42 288
e 42 338
e 42 457
e 42 543
e 42 573
e 42 578
e 42 694
e 42 744
e 43 157
e 43 158
e 44 47
e 44 211
e 45 74
e 46 657
e 47 149
e 47 380
e 47 608
e 47 628
e 48 287
e 49 236
e 49 292
e 49 548
e 50 93
e 51 734
e 52 595
e 52 724
e 53 575
e 54 117
e 54 291
e 54 441
e 54 594
e 54 680
e 55 610
e 57 300
e 58 101
e 58 153
e 58 563
e 59 90
e 59 330
e 59 553
e 60 170
e 60 748
e 61 259
e 62 554
e 63 138
e 64 221
e 64 394
e 65 89
e 66 362
e 67 145
e 68 200
e 69 232
e 70 211
e 70 244
e 71 133
e 71 486
e 71 614
e 71 707
e 71 729
e 72 545
e 73 617
e 74 185
e 74 188
e 74 322
e 74 539
e 74 573
e 74 677
e 74 679
e 75 115
e 75 364
e 76 456
e 77 324
e 77 564
e 78 731
e 79 278
e 79 325
e 79 374
e 79 474
e 79 585
e 80 95
e 80 143
e 80 662
e 81 727
e 82 143
e 83 128
e 83 516
e 83 588
e 84 650
e 85 89
e 85 330
e 86 359
e 86 370
e 87 594
e 88 125
e 88 173
e 88 381
e 88 477
e 89 316
e 89 334
e 89 427
e 89 570
e 91 162
e 92 426
e 93 684
e 94 281
e 94 600
e 94 701
e 95 133
e 95 242
e 95 285
e 95 326
e 95 624
e 96 579
e 96 598
e 97 438
e 98 194
e 99 230
e 99 344
e 99 505
e 99 713
e 100 352
e 101 459
e 101 482
e 101 670
e 102 534
e 103 124
e 104 326
e 104 347
e 104 508
e 105 183
e 105 210
e 106 351
e 106 422
e 107 709
e 108 609
e 109 462
e 109 506
e 109 615
e 110 207
e 111 354
e 111 666
e 112 152
e 112 186
e 113 194
e 114 527
e 115 417
e 115 533
e 116 610
e 118 463
e 118 589
e 118 721
e 119 494
e 119 702
e 120 247
e 120 442
e 121 624
e 122 135
e 122 302
e 123 628
e 124 173
e 124 197
e 124 296
e 125 431
e 125 599
e 126 747
e 127 632
e 129 622
e 130 387
e 131 368
e 131 738
e 132 521
e 133 494
e 134 228
e 136 182
e 136 495
e 137 502
e 137 613
e 138 524
e 138 564
e 139 179
e 139 289
e 140 702
e 141 283
e 141 306
e 141 346
e 141 416
e 142 319
e 144 415
e 144 748
e 145 504
e 145 728
e 145 743
e 146 250
e 146 503
e 147 468
e 148 716
e 149 514
e 149 689
e 150 293
e 150 306
e 150 435
e 151 401
e 151 531
e 152 572
e 154 466
e 155 492
e 156 297
e 158 476
e 158 652
e 159 521
e 160 353
e 161 221
e 161 584
e 162 446
e 162 527
e 162 555
e 163 271
e 163 430
e 163 666
e 164 554
e 165 170
e 166 535
e 166 638
e 167 618
e 167 734
e 168 175
e 169 199
e 171 557
e 172 375
e 172 650
e 173 295
e 173 533
e 173 551
e 173 604
e 174 219
e 174 366
e 174 397
e 176 580
e 177 246
e 177 410
e 177 603
e 178 426
e 178 671
e 178 693
e 179 269
e 179 447
e 179 693
e 180 305
e 181 528
e 184 299
e 184 715
e 187 737
e 190 620
e 191 466
e 192 685
e 193 252
e 193 320
e 193 514
e 194 393
e 194 473
e 194 691
e 196 425
e 197 224
e 197 378
e 198 518
e 199 450
e 200 438
e 200 688
e 202 479
e 203 243
e 203 441
e 203 458
e 204 650
e 205 307
e 205 502
e 206 479
e 207 343
e 207 697
e 208 466
e 208 484
e 208 698
e 209 700
e 210 259
e 210 701
e 212 702
e 213 732
e 214 357
e 214 392
e 214 600
e 214 601
e 214 650
e 214 705
e 215 308
e 216 468
e 217 433
e 217 705
e 218 405
e 218 725
e 219 221
e 219 279
e 220 271
e 220 275
e 222 361
e 222 488
e 222 499
e 223 528
e 225 329
e 226 342
e 227 267
e 227 310
e 227 358
e 227 707
e 227 730
e 229 401
e 229 597
e 229 726
e 231 237
e 231 709
e 231 735
e 232 317
e 232 460
e 232 659
e 233 241
e 233 345
e 233 395
e 233 448
e 234 649
e 235 301
e 235 508
e 236 623
e 237 350
e 237 391
e 237 538
e 237 717
e 238 311
e 238 683
e 239 745
e 240 571
e 245 685
e 246 639
e 246 732
e 247 432
e 247 449
e 247 736
e 249 323
e 250 452
e 251 374
e 251 496
e 251 625
e 252 360
e 252 739
e 253 283
e 253 716
e 254 388
e 255 373
e 256 260
e 257 269
e 257 329
e 258 581
e 261 295
e 262 748
e 263 268
e 263 733
e 264 741
e 265 291
e 265 306
e 265 381
e 265 512
e 268 596
e 270 492
e 271 398
e 271 429
e 272 552
e 272 658
e 272 723
e 273 368
e 273 604
e 274 450
e 274 634
e 274 737
e 276 559
e 276 664
e 277 332
e 277 526
e 279 403
e 279 712
e 280 430
e 282 312
e 282 537
e 284 346
e 287 655
e 290 313
e 291 380
e 291 546
e 291 638
e 292 672
e 294 455
e 295 687
e 296 564
e 296 575
e 298 604
e 298 609
e 298 655
e 300 634
e 301 657
e 303 367
e 304 554
e 305 436
e 305 594
e 306 312
e 306 418
e 308 562
e 309 746
e 311 582
e 312 355
e 312 557
e 312 587
e 314 476
e 314 647
e 314 742
e 315 642
e 318 376
e 319 511
e 319 561
e 319 586
e 319 630
e 320 513
e 320 722
e 321 554
e 323 690
e 326 389
e 326 429
e 327 666
e 328 352
e 328 503
e 329 740
e 330 371
e 330 591
e 331 398
e 333 584
e 335 553
e 336 468
e 336 698
e 337 530
e 339 471
e 340 375
e 341 461
e 342 453
e 342 498
e 347 698
e 348 608
e 349 373
e 351 631
e 351 639
e 353 385
e 353 615
e 354 566
e 354 617
e 354 640
e 356 461
e 357 451
e 357 532
e 359 424
e 362 486
e 362 493
e 365 675
e 365 719
e 367 502
e 367 627
e 368 540
e 369 660
e 370 435
e 370 443
e 371 601
e 372 573
e 372 661
e 372 670
e 373 706
e 373 733
e 376 465
e 377 415
e 377 499
e 377 654
e 379 562
e 380 488
e 380 622
e 381 669
e 382 642
e 383 581
e 384 631
e 386 432
e 386 534
e 386 547
e 386 699
e 387 633
e 388 641
e 388 665
e 390 532
e 396 631
e 399 428
e 400 700
e 401 497
e 402 445
e 402 558
e 402 668
e 404 542
e 404 674
e 404 721
e 406 449
e 407 615
e 408 480
e 408 544
e 408 601
e 408 637
e 408 639
e 408 735
e 409 429
e 411 551
e 412 471
e 412 735
e 413 519
e 414 702
e 415 602
e 416 652
e 416 670
e 418 440
e 418 616
e 419 577
e 420 518
e 420 519
e 420 656
e 421 649
e 423 657
e 424 550
e 425 444
e 425 601
e 426 593
e 428 434
e 428 559
e 429 509
e 429 712
e 430 529
e 432 604
e 432 715
e 437 750
e 438 582
e 438 746
e 439 725
e 440 455
e 441 663
e 444 697
e 447 523
e 447 672
e 449 676
e 450 595
e 452 523
e 452 546
e 454 656
e 454 696
e 460 572
e 460 620
e 464 732
e 466 469
e 466 590
e 466 636
e 467 714
e 467 741
e 468 568
e 468 711
e 470 583
e 476 619
e 477 704
e 478 479
e 479 692
e 479 695
e 479 697
e 480 668
e 481 581
e 482 581
e 483 511
e 485 530
e 488 509
e 488 660
e 489 622
e 490 577
e 491 496
e 491 527
e 492 750
e 496 635
e 496 705
e 500 727
e 501 516
e 501 672
e 502 689
e 503 667
e 510 669
e 515 699
e 517 625
e 519 612
e 519 621
e 519 644
e 521 591
e 525 727
e 526 662
e 528 705
e 530 662
e 536 547
e 541 696
e 544 721
e 546 650
e 549 650
e 553 592
e 554 613
e 556 618
e 560 689
e 562 604
e 565 634
e 569 618
e 571 632
e 572 685
e 574 716
e 576 687
e 577 655
e 579 638
e 580 669
e 580 673
e 582 703
e 583 594
e 594 684
e 598 678
e 600 703
e 601 675
e 605 715
e 606 750
e 607 657
e 609 646
e 610 707
e 611 707
e 614 648
e 615 662
e 618 678
e 620 681
e 625 720
e 626 727
e 627 718
e 629 750
e 631 708
e 632 642
e 641 649
e 641 667
e 643 732
e 645 693
e 651 736
e 653 669
e 656 670
e 656 743
e 662 725
e 675 686
e 682 700
e 700 749
e 712 731
e 733 745