c Вес дерева = 16415, диаметр = 10
p edge 250 249
e 1 31
e 1 44
e 1 48
e 1 52
e 1 56
e 1 57
e 1 58
e 1 60
e 1 63
e 1 94
e 1 103
e 1 106
e 1 115
e 1 122
e 1 127
e 1 129
e 1 145
e 1 149
e 1 154
e 1 155
e 1 158
e 1 167
e 1 177
e 1 183
e 1 189
e 1 192
e 1 205
e 1 216
e 1 220
e 1 229
e 2 142
e 3 58
e 4 58
e 5 58
e 6 58
e 7 66
e 8 66
e 9 58
e 10 12
e 10 21
e 10 46
e 10 47
e 10 57
e 10 74
e 10 97
e 10 105
e 10 117
e 10 123
e 10 130
e 10 132
e 10 133
e 10 136
e 10 140
e 10 146
e 10 164
e 10 185
e 10 198
e 10 249
e 11 58
e 12 200
e 13 90
e 14 58
e 15 118
e 16 150
e 17 202
e 18 142
e 19 160
e 20 58
e 22 58
e 23 150
e 24 208
e 25 208
e 26 208
e 27 57
e 28 90
e 29 58
e 30 58
e 32 160
e 33 142
e 34 57
e 35 208
e 36 57
e 36 90
e 37 233
e 38 224
e 39 233
e 40 190
e 41 58
e 42 190
e 43 58
e 45 217
e 49 208
e 50 190
e 51 232
e 53 208
e 54 58
e 55 57
e 55 233
e 57 135
e 57 150
e 57 179
e 57 243
e 57 245
e 58 59
e 58 62
e 58 64
e 58 77
e 58 81
e 58 82
e 58 85
e 58 86
e 58 93
e 58 95
e 58 98
e 58 107
e 58 113
e 58 126
e 58 137
e 58 138
e 58 141
e 58 147
e 58 156
e 58 162
e 58 166
e 58 174
e 58 175
e 58 176
e 58 184
e 58 201
e 58 206
e 58 207
e 58 210
e 58 211
e 58 218
e 58 223
e 58 226
e 58 228
e 58 230
e 58 247
e 59 235
e 61 160
e 65 233
e 66 69
e 66 72
e 66 84
e 66 92
e 66 125
e 66 131
e 66 143
e 66 150
e 66 152
e 66 165
e 66 187
e 66 188
e 66 195
e 66 214
e 66 221
e 66 240
e 66 244
e 67 90
e 68 232
e 70 233
e 71 224
e 73 160
e 75 232
e 76 90
e 78 142
e 79 224
e 80 224
e 83 142
e 87 208
e 88 118
e 89 150
e 90 100
e 90 114
e 90 119
e 90 182
e 91 232
e 96 208
e 99 224
e 101 190
e 102 208
e 104 233
e 108 208
e 109 160
e 110 118
e 111 160
e 112 233
e 116 217
e 118 121
e 118 161
e 118 171
e 118 212
e 118 222
e 118 242
e 118 246
e 120 190
e 123 180
e 124 190
e 128 208
e 134 160
e 135 142
e 139 160
e 142 144
e 142 159
e 142 163
e 142 172
e 142 234
e 148 232
e 150 170
e 150 191
e 151 224
e 153 160
e 157 233
e 160 179
e 160 197
e 160 209
e 160 227
e 160 237
e 163 194
e 168 224
e 169 232
e 173 224
e 175 190
e 178 190
e 180 208
e 181 232
e 186 190
e 190 225
e 190 231
e 190 250
e 193 233
e 196 208
e 199 224
e 200 217
e 202 212
e 202 245
e 203 233
e 204 224
e 208 219
e 208 241
e 208 248
e 213 224
e 215 233
e 217 238
e 224 239
e 224 243
e 232 245
e 233 236