n = 2019
1)	142	1457
2)	653	1164
3)	343	1150
4)	1014	991
5)	1612	1977
6)	1016	963
7)	1013	990
8)	997	1021
9)	436	1147
10)	704	1062
11)	1333	250
12)	103	635
13)	1175	1318
14)	103	111
15)	1270	682
16)	691	1972
17)	1240	414
18)	1029	1012
19)	1493	1102
20)	609	1643
21)	981	974
22)	1031	1431
23)	962	1048
24)	1016	972
25)	756	1726
26)	945	731
27)	31	387
28)	536	363
29)	1650	618
30)	674	1875
31)	1161	1760
32)	999	1021
33)	1677	408
34)	1040	987
35)	1044	999
36)	1014	1007
37)	446	1476
38)	1837	1017
39)	727	1683
40)	1033	1014
41)	1812	789
42)	801	1492
43)	1034	1017
44)	1370	1077
45)	1820	1284
46)	607	1407
47)	388	544
48)	183	1817
49)	664	1232
50)	1017	1022
51)	998	1002
52)	1001	1011
53)	1021	1021
54)	697	471
55)	754	228
56)	658	1339
57)	1382	968
58)	1120	725
59)	555	1067
60)	282	942
61)	312	1133
62)	492	1561
63)	1035	1003
64)	651	652
65)	108	403
66)	846	624
67)	987	996
68)	774	1095
69)	1039	1031
70)	1536	725
71)	93	1447
72)	938	1978
73)	1076	983
74)	988	1044
75)	1048	987
76)	110	602
77)	1250	24
78)	999	1003
79)	1580	1312
80)	1483	1162
81)	1013	988
82)	420	468
83)	1378	742
84)	1004	1037
85)	802	132
86)	360	164
87)	144	1716
88)	970	1014
89)	941	1972
90)	990	1007
91)	1813	1047
92)	1178	1544
93)	973	1004
94)	405	835
95)	626	986
96)	1464	695
97)	1004	1015
98)	1040	870
99)	933	1251
100)	1583	1922
101)	1038	1009
102)	993	1020
103)	948	1025
104)	1048	588
105)	697	1913
106)	499	1434
107)	1250	1625
108)	21	1472
109)	1073	420
110)	1568	1001
111)	1180	1596
112)	1606	369
113)	1825	1105
114)	989	1011
115)	1610	1820
116)	1147	1394
117)	1390	964
118)	1006	1032
119)	994	981
120)	1445	535
121)	73	134
122)	987	974
123)	1452	515
124)	1247	256
125)	491	318
126)	620	1017
127)	343	1199
128)	310	837
129)	1507	1142
130)	1049	985
131)	994	1000
132)	1630	1237
133)	243	1739
134)	804	1359
135)	996	1057
136)	980	1039
137)	1593	670
138)	1483	904
139)	1011	1006
140)	1017	1025
141)	196	1240
142)	1010	1460
143)	1423	926
144)	1007	1028
145)	1040	697
146)	1042	1020
147)	1010	1003
148)	992	1001
149)	531	1960
150)	1604	1818
151)	1205	1115
152)	1029	1013
153)	542	713
154)	990	1763
155)	1052	1003
156)	1030	1022
157)	229	1919
158)	176	1510
159)	1112	1889
160)	1538	1046
161)	207	951
162)	994	1017
163)	972	1040
164)	1617	488
165)	1077	151
166)	1033	1078
167)	599	743
168)	99	1902
169)	500	203
170)	202	115
171)	979	977
172)	1007	1977
173)	1975	123
174)	1072	1031
175)	977	998
176)	1020	1008
177)	633	676
178)	528	1525
179)	998	1004
180)	1024	971
181)	111	420
182)	1023	984
183)	355	1381
184)	927	1952
185)	1414	153
186)	997	987
187)	830	1857
188)	1115	1292
189)	1489	438
190)	997	1009
191)	1081	120
192)	1248	726
193)	1020	1037
194)	998	992
195)	479	1459
196)	468	396
197)	1007	988
198)	525	69
199)	91	562
200)	1008	993
201)	1632	1698
202)	1561	1946
203)	912	1648
204)	997	1029
205)	1754	304
206)	1029	997
207)	521	1368
208)	1755	449
209)	75	1802
210)	309	485
211)	829	1128
212)	975	969
213)	1006	1029
214)	1514	453
215)	90	2017
216)	896	1028
217)	699	1463
218)	1713	970
219)	1299	1934
220)	1097	1455
221)	635	322
222)	432	1304
223)	1251	228
224)	1813	1265
225)	987	980
226)	1016	1006
227)	1044	995
228)	1457	806
229)	994	246
230)	1025	1019
231)	693	1796
232)	993	1029
233)	889	540
234)	68	1905
235)	1006	1019
236)	854	695
237)	1941	1608
238)	1603	1985
239)	1639	28
240)	1019	1055
241)	1012	1031
242)	832	1095
243)	1009	970
244)	957	1836
245)	390	1585
246)	998	1036
247)	1308	366
248)	1567	1131
249)	356	1524
250)	454	404
251)	1002	1060
252)	1093	945
253)	1003	1031
254)	4	973
255)	1929	1635
256)	685	1341
257)	1024	997
258)	1369	1955
259)	991	1006
260)	452	1981
261)	1467	1522
262)	1441	1220
263)	1038	1042
264)	1062	969
265)	998	1051
266)	1030	985
267)	1352	1426
268)	985	1026
269)	1205	1202
270)	1899	529
271)	448	1133
272)	986	1012
273)	296	490
274)	1007	1015
275)	85	181
276)	938	1223
277)	1680	1252
278)	979	1005
279)	991	999
280)	1874	1454
281)	733	1979
282)	997	998
283)	1027	206
284)	870	803
285)	244	1114
286)	31	1635
287)	873	1582
288)	706	113
289)	416	480
290)	1305	1258
291)	460	663
292)	1773	1178
293)	1022	1013
294)	537	102
295)	522	134
296)	1094	139
297)	271	799
298)	582	717
299)	1024	1007
300)	996	998
301)	1588	75
302)	1651	1753
303)	135	1552
304)	1370	952
305)	980	1017
306)	977	1018
307)	965	457
308)	1404	298
309)	1862	304
310)	1956	1761
311)	609	1147
312)	1028	1027
313)	980	988
314)	441	1564
315)	1963	1482
316)	73	958
317)	63	420
318)	582	1923
319)	490	758
320)	1278	1493
321)	940	1039
322)	988	133
323)	1029	976
324)	1971	161
325)	632	1342
326)	1953	1663
327)	972	1033
328)	1019	1016
329)	1004	1034
330)	1011	985
331)	660	1309
332)	959	1908
333)	1535	211
334)	1979	1257
335)	1052	997
336)	1032	1013
337)	1862	722
338)	1050	1013
339)	158	1192
340)	1016	1002
341)	981	1012
342)	919	1156
343)	1021	1005
344)	244	1970
345)	656	4
346)	1726	1492
347)	638	1581
348)	461	828
349)	1076	994
350)	330	821
351)	1671	1859
352)	1020	1011
353)	1010	997
354)	975	980
355)	103	342
356)	1209	768
357)	941	649
358)	1015	1034
359)	178	517
360)	363	1021
361)	1035	1054
362)	638	845
363)	1310	1590
364)	106	705
365)	977	1023
366)	330	10
367)	1024	1026
368)	1013	963
369)	1468	375
370)	607	906
371)	1037	978
372)	1884	1023
373)	418	755
374)	1519	45
375)	1445	1998
376)	1084	1632
377)	735	1882
378)	1407	1067
379)	582	852
380)	1029	169
381)	1010	1014
382)	600	826
383)	1007	994
384)	1003	988
385)	983	1002
386)	18	1316
387)	1790	441
388)	1127	1954
389)	1005	1018
390)	1602	44
391)	1300	1378
392)	1029	1019
393)	1767	548
394)	989	1010
395)	975	1006
396)	990	998
397)	1004	810
398)	984	50
399)	317	1668
400)	1018	1006
401)	180	489
402)	1704	1940
403)	1424	261
404)	747	470
405)	1091	452
406)	12	1593
407)	1663	1353
408)	719	232
409)	1044	981
410)	631	1747
411)	981	945
412)	831	1944
413)	1179	115
414)	2011	583
415)	75	223
416)	1791	1766
417)	591	1107
418)	1776	1833
419)	1904	1198
420)	1036	1043
421)	1592	493
422)	954	983
423)	538	554
424)	464	724
425)	1038	1027
426)	126	303
427)	1903	1649
428)	148	1622
429)	999	1011
430)	1374	1252
431)	843	846
432)	1811	940
433)	1021	1014
434)	996	1049
435)	1105	1435
436)	998	1033
437)	145	1451
438)	1187	1261
439)	1020	1036
440)	1315	695
441)	1019	1011
442)	1069	1414
443)	999	985
444)	1020	1022
445)	771	164
446)	1020	1028
447)	1014	1023
448)	933	568
449)	1905	1613
450)	1032	990
451)	213	1023
452)	988	1021
453)	1047	1047
454)	1015	986
455)	1756	921
456)	1232	1856
457)	1218	144
458)	1808	1405
459)	1084	1441
460)	1760	257
461)	1038	1032
462)	1087	1336
463)	1560	1156
464)	1866	1675
465)	1580	150
466)	1828	202
467)	1006	1013
468)	695	1651
469)	974	1025
470)	862	765
471)	130	1491
472)	1573	569
473)	1593	1243
474)	1211	1388
475)	1599	1443
476)	56	1706
477)	441	684
478)	512	1783
479)	635	1400
480)	1931	941
481)	993	1000
482)	382	1219
483)	1028	987
484)	816	1864
485)	1015	1001
486)	212	1924
487)	999	965
488)	1069	1847
489)	227	1446
490)	1303	1312
491)	598	1020
492)	749	781
493)	1008	990
494)	1006	1049
495)	599	1226
496)	1497	1618
497)	1879	862
498)	425	998
499)	1019	984
500)	107	256
501)	188	620
502)	1941	1502
503)	1017	960
504)	1014	993
505)	418	163
506)	1303	682
507)	1849	475
508)	393	1984
509)	1731	463
510)	266	1939
511)	811	922
512)	176	1352
513)	996	1020
514)	1436	374
515)	1027	1012
516)	356	718
517)	686	1818
518)	810	276
519)	981	975
520)	905	698
521)	959	1050
522)	581	1500
523)	1019	971
524)	991	1031
525)	1432	537
526)	1033	993
527)	1086	131
528)	1036	1005
529)	1880	1432
530)	229	1910
531)	376	414
532)	1551	954
533)	1024	1402
534)	1014	1004
535)	933	750
536)	402	60
537)	1043	1009
538)	1033	1017
539)	1355	876
540)	524	755
541)	1718	464
542)	292	432
543)	476	1190
544)	1021	1022
545)	1785	1469
546)	960	711
547)	178	149
548)	1055	356
549)	997	1006
550)	995	1010
551)	1689	631
552)	28	1009
553)	318	232
554)	1837	806
555)	1023	1020
556)	1622	1827
557)	1511	511
558)	1040	1004
559)	700	1583
560)	985	1203
561)	663	187
562)	1053	1679
563)	1039	1000
564)	424	1710
565)	82	3
566)	1803	293
567)	327	637
568)	1436	1240
569)	43	946
570)	989	996
571)	1019	1083
572)	839	473
573)	142	1080
574)	1546	460
575)	1039	1032
576)	37	1777
577)	1079	979
578)	62	101
579)	990	1044
580)	1486	113
581)	1049	986
582)	1814	462
583)	1001	1002
584)	1470	396
585)	563	1380
586)	1007	1033
587)	968	1022
588)	984	1007
589)	775	183
590)	967	1007
591)	1705	1953
592)	519	953
593)	162	392
594)	1004	1016
595)	336	1385
596)	1148	1591
597)	284	741
598)	1580	2009
599)	801	1591
600)	1033	1013
601)	1681	450
602)	1161	1179
603)	421	1896
604)	993	1018
605)	945	1024
606)	1948	1473
607)	996	1008
608)	1498	465
609)	764	410
610)	1700	1962
611)	1752	910
612)	1007	1027
613)	1002	986
614)	1036	983
615)	1378	121
616)	927	2016
617)	985	969
618)	1042	996
619)	185	985
620)	168	1272
621)	1654	976
622)	1966	1521
623)	996	994
624)	1008	1054
625)	982	1041
626)	378	64
627)	1273	625
628)	1007	1007
629)	850	1155
630)	873	341
631)	382	1872
632)	1428	644
633)	813	1991
634)	646	1763
635)	1011	1025
636)	854	1171
637)	553	797
638)	335	687
639)	1982	1373
640)	731	1065
641)	358	990
642)	850	1904
643)	1975	1383
644)	1254	256
645)	26	1131
646)	1010	1028
647)	877	315
648)	1640	598
649)	1712	1244
650)	1843	933
651)	1059	1345
652)	1066	1041
653)	791	204
654)	936	1873
655)	1040	1021
656)	1010	1002
657)	730	1927
658)	1463	139
659)	296	680
660)	1053	1544
661)	1501	1910
662)	1030	1010
663)	1332	1392
664)	1321	1792
665)	562	412
666)	1031	1021
667)	879	1280
668)	1698	1704
669)	993	1017
670)	970	1042
671)	402	967
672)	126	337
673)	1035	1078
674)	980	978
675)	1309	1095
676)	996	269
677)	1067	1032
678)	1947	323
679)	741	916
680)	1856	1814
681)	1790	929
682)	1906	1706
683)	496	3
684)	554	515
685)	976	1002
686)	999	1004
687)	65	694
688)	1673	1339
689)	1025	968
690)	1025	984
691)	1804	1735
692)	999	986
693)	998	1010
694)	1019	1035
695)	999	998
696)	1024	1326
697)	1000	990
698)	880	1067
699)	1158	1423
700)	1004	997
701)	1019	803
702)	1720	1183
703)	990	1029
704)	1465	313
705)	1031	998
706)	629	917
707)	1138	440
708)	1728	1696
709)	973	971
710)	1341	378
711)	1027	1867
712)	982	985
713)	1256	1491
714)	1235	776
715)	1886	221
716)	1013	1005
717)	1000	596
718)	111	199
719)	1045	993
720)	1340	882
721)	724	1982
722)	1031	1015
723)	1533	643
724)	869	1323
725)	895	956
726)	1495	829
727)	991	1034
728)	1007	1009
729)	1021	1060
730)	1006	1031
731)	1011	973
732)	1009	1027
733)	232	1324
734)	1004	1055
735)	1437	1268
736)	1012	1018
737)	1209	588
738)	1948	860
739)	841	1656
740)	1696	562
741)	103	75
742)	1020	996
743)	630	381
744)	421	1410
745)	1137	84
746)	1033	1050
747)	1065	968
748)	1315	34
749)	994	1057
750)	1419	413
751)	1026	981
752)	894	1846
753)	106	70
754)	1004	345
755)	1296	788
756)	989	1026
757)	1705	256
758)	997	1002
759)	803	1957
760)	1136	1764
761)	1011	1018
762)	523	1520
763)	1566	1832
764)	1914	1643
765)	329	401
766)	983	1001
767)	987	1003
768)	1611	533
769)	996	1003
770)	1022	998
771)	1263	1552
772)	1719	701
773)	1037	1012
774)	986	1003
775)	977	1019
776)	1913	1030
777)	520	618
778)	1285	791
779)	638	757
780)	296	170
781)	530	1943
782)	979	1009
783)	1808	281
784)	859	1933
785)	1198	1997
786)	663	476
787)	1031	1026
788)	981	992
789)	947	1031
790)	1028	982
791)	1285	1969
792)	1281	1429
793)	973	1025
794)	1154	74
795)	1189	349
796)	1345	947
797)	1023	1014
798)	1007	1025
799)	461	1380
800)	1015	990
801)	1577	1771
802)	1726	1320
803)	769	1013
804)	1050	1000
805)	1029	1010
806)	1053	1006
807)	1022	1005
808)	982	1007
809)	1019	1003
810)	1082	1002
811)	1012	1008
812)	216	1818
813)	1557	830
814)	1593	459
815)	185	828
816)	1658	1623
817)	818	1890
818)	773	142
819)	1019	989
820)	67	1282
821)	601	1954
822)	677	1415
823)	645	1033
824)	1039	1053
825)	922	1947
826)	35	1918
827)	1437	500
828)	971	1013
829)	1040	1019
830)	400	749
831)	1007	970
832)	1165	1052
833)	1471	416
834)	1981	250
835)	1043	979
836)	1003	1016
837)	831	1766
838)	1443	1371
839)	1010	989
840)	1588	582
841)	510	1598
842)	1005	986
843)	995	1001
844)	1902	371
845)	1002	1020
846)	446	2014
847)	1960	1515
848)	1024	1005
849)	1007	1004
850)	982	1005
851)	991	992
852)	1015	1020
853)	1670	1093
854)	1039	978
855)	556	866
856)	980	948
857)	708	475
858)	935	1309
859)	626	662
860)	1470	1225
861)	228	348
862)	1288	970
863)	1907	1782
864)	1037	1041
865)	815	1325
866)	968	974
867)	1627	2002
868)	764	549
869)	1030	1029
870)	7	1238
871)	1833	1484
872)	1008	1004
873)	1437	1019
874)	141	1371
875)	366	1299
876)	525	712
877)	1033	1023
878)	786	448
879)	1139	412
880)	974	1049
881)	1007	1031
882)	1608	907
883)	1080	441
884)	883	1504
885)	1280	380
886)	1008	1036
887)	1944	784
888)	948	1368
889)	1032	1005
890)	1610	709
891)	511	1728
892)	1849	611
893)	398	118
894)	1662	161
895)	713	1991
896)	1669	1926
897)	1154	786
898)	795	247
899)	1765	325
900)	1983	1545
901)	646	953
902)	348	235
903)	1002	981
904)	1286	732
905)	134	1469
906)	1734	868
907)	318	129
908)	1009	1025
909)	13	1355
910)	331	652
911)	1659	173
912)	1015	1046
913)	1312	1658
914)	1674	1608
915)	1357	1565
916)	1500	1553
917)	1017	1018
918)	1899	419
919)	1026	996
920)	985	1018
921)	469	1858
922)	76	738
923)	1046	1044
924)	1755	206
925)	1840	1291
926)	1375	880
927)	1027	982
928)	1467	895
929)	245	164
930)	193	876
931)	784	341
932)	1030	1031
933)	1021	1010
934)	970	1024
935)	990	1012
936)	1376	1058
937)	1021	999
938)	716	991
939)	846	1073
940)	980	972
941)	578	1339
942)	1333	1359
943)	1729	197
944)	1708	830
945)	632	352
946)	1146	162
947)	1011	995
948)	1016	1033
949)	1013	987
950)	642	651
951)	1014	970
952)	1005	999
953)	1005	1011
954)	1019	1022
955)	1984	601
956)	1417	1625
957)	1643	621
958)	987	975
959)	960	1037
960)	362	267
961)	1040	942
962)	1965	193
963)	1283	1333
964)	1808	450
965)	400	874
966)	999	1032
967)	1026	993
968)	1031	1016
969)	1008	1011
970)	571	1242
971)	463	1340
972)	1446	934
973)	670	1984
974)	1030	1013
975)	1034	1011
976)	712	219
977)	1245	1173
978)	1600	1593
979)	1040	1020
980)	137	137
981)	992	1007
982)	987	1013
983)	982	1309
984)	796	1213
985)	1037	1008
986)	1072	591
987)	581	787
988)	182	1000
989)	1043	995
990)	1047	1010
991)	990	994
992)	1551	1902
993)	1032	1030
994)	729	678
995)	1380	1140
996)	1056	1007
997)	1394	978
998)	1940	655
999)	1439	6
1000)	991	1032
1001)	1573	1392
1002)	65	1717
1003)	1876	1600
1004)	1038	998
1005)	1012	994
1006)	1446	829
1007)	1606	945
1008)	1590	638
1009)	1651	546
1010)	1007	1021
1011)	816	1601
1012)	1009	889
1013)	987	1015
1014)	559	1298
1015)	1667	741
1016)	47	1697
1017)	823	606
1018)	267	987
1019)	992	1003
1020)	968	1012
1021)	157	571
1022)	874	575
1023)	986	1010
1024)	1037	1019
1025)	1497	936
1026)	994	1014
1027)	955	1011
1028)	1002	1001
1029)	1850	1646
1030)	1359	2005
1031)	1705	896
1032)	1752	1910
1033)	1080	1383
1034)	1023	1024
1035)	1009	972
1036)	438	289
1037)	1555	1268
1038)	63	1346
1039)	980	966
1040)	946	1602
1041)	646	1560
1042)	517	740
1043)	1378	258
1044)	986	997
1045)	1340	1663
1046)	1552	1807
1047)	1993	372
1048)	1017	1044
1049)	378	1319
1050)	986	1037
1051)	143	374
1052)	1337	491
1053)	1000	1019
1054)	1987	638
1055)	518	1645
1056)	1684	817
1057)	1015	1030
1058)	1050	202
1059)	1025	1023
1060)	1011	1009
1061)	1008	1021
1062)	893	257
1063)	1027	1034
1064)	87	224
1065)	416	1731
1066)	142	1232
1067)	1006	1048
1068)	999	989
1069)	703	706
1070)	991	1041
1071)	1038	1077
1072)	982	974
1073)	916	1845
1074)	162	1758
1075)	910	475
1076)	1639	915
1077)	1052	1044
1078)	1193	617
1079)	987	995
1080)	1006	1011
1081)	992	1005
1082)	1040	967
1083)	1919	672
1084)	1926	1682
1085)	1014	989
1086)	1011	968
1087)	1348	1371
1088)	716	1703
1089)	1349	391
1090)	1002	1008
1091)	1085	866
1092)	1012	1041
1093)	1431	21
1094)	798	521
1095)	1369	1710
1096)	1007	1002
1097)	1008	950
1098)	1548	1460
1099)	1029	988
1100)	1446	205
1101)	1009	1013
1102)	1028	1000
1103)	330	645
1104)	1023	1111
1105)	1063	1854
1106)	480	77
1107)	389	534
1108)	577	901
1109)	935	1747
1110)	1857	118
1111)	984	977
1112)	94	1704
1113)	979	1053
1114)	24	1658
1115)	976	999
1116)	1727	1635
1117)	999	1000
1118)	283	275
1119)	1707	1026
1120)	738	1367
1121)	856	389
1122)	1409	627
1123)	1514	604
1124)	1060	977
1125)	588	464
1126)	1040	1011
1127)	999	1015
1128)	1840	803
1129)	470	1380
1130)	982	176
1131)	1888	761
1132)	1970	1310
1133)	1962	1822
1134)	459	1939
1135)	1030	1008
1136)	1031	1045
1137)	246	2014
1138)	1895	963
1139)	646	896
1140)	1015	1016
1141)	572	1891
1142)	1379	138
1143)	1617	1436
1144)	1155	133
1145)	702	710
1146)	998	991
1147)	1003	1033
1148)	1500	822
1149)	1745	1633
1150)	780	1529
1151)	1005	1055
1152)	1006	1022
1153)	493	563
1154)	1519	1720
1155)	1827	1890
1156)	842	461
1157)	1655	1936
1158)	1597	477
1159)	1031	997
1160)	962	806
1161)	1956	1811
1162)	1008	985
1163)	1028	1043
1164)	400	977
1165)	371	1752
1166)	1074	970
1167)	1622	113
1168)	966	1123
1169)	1529	1773
1170)	770	909
1171)	1952	1118
1172)	1682	967
1173)	1136	710
1174)	1339	419
1175)	556	785
1176)	985	1071
1177)	1725	282
1178)	395	53
1179)	2008	221
1180)	1380	713
1181)	387	905
1182)	12	1261
1183)	1029	974
1184)	1758	321
1185)	1948	147
1186)	997	1030
1187)	338	1860
1188)	1361	791
1189)	991	1002
1190)	1386	574
1191)	1010	1016
1192)	1995	487
1193)	865	1309
1194)	208	490
1195)	567	66
1196)	1128	997
1197)	440	189
1198)	1988	225
1199)	1979	717
1200)	1788	816
1201)	1118	1518
1202)	1929	1388
1203)	1091	732
1204)	987	1002
1205)	497	1714
1206)	972	1012
1207)	1811	796
1208)	1019	1014
1209)	1031	1007
1210)	1895	1912
1211)	1370	1089
1212)	979	999
1213)	1526	799
1214)	1237	1371
1215)	736	1822
1216)	412	1124
1217)	1246	1848
1218)	388	730
1219)	1166	1798
1220)	798	767
1221)	1066	907
1222)	1196	1080
1223)	1260	230
1224)	1604	18
1225)	1618	825
1226)	597	980
1227)	1028	1025
1228)	503	1028
1229)	1145	1457
1230)	1344	468
1231)	988	990
1232)	1705	1696
1233)	958	1012
1234)	127	1138
1235)	1141	438
1236)	1028	983
1237)	392	1563
1238)	988	1016
1239)	159	567
1240)	1010	1032
1241)	1001	1029
1242)	1016	992
1243)	943	1798
1244)	27	1717
1245)	1034	998
1246)	349	1199
1247)	1021	1019
1248)	440	1506
1249)	1453	1767
1250)	362	1866
1251)	912	437
1252)	1742	1592
1253)	1055	1003
1254)	1356	696
1255)	141	1282
1256)	779	958
1257)	1055	1125
1258)	1575	1392
1259)	1354	1233
1260)	1157	760
1261)	804	1228
1262)	1037	1007
1263)	247	766
1264)	1021	668
1265)	263	27
1266)	983	998
1267)	951	1415
1268)	608	102
1269)	21	344
1270)	236	187
1271)	1024	1006
1272)	229	1573
1273)	1066	1005
1274)	1017	1020
1275)	999	994
1276)	1008	1043
1277)	1042	1054
1278)	974	1668
1279)	979	1006
1280)	1700	1539
1281)	1039	1016
1282)	733	588
1283)	1346	722
1284)	118	200
1285)	1791	123
1286)	1001	980
1287)	1435	384
1288)	1035	976
1289)	1015	996
1290)	210	1522
1291)	1864	252
1292)	996	987
1293)	996	1000
1294)	1535	1171
1295)	1935	385
1296)	1616	461
1297)	770	572
1298)	660	1188
1299)	1078	169
1300)	555	176
1301)	1185	727
1302)	392	23
1303)	487	925
1304)	1525	1611
1305)	1880	244
1306)	1686	644
1307)	25	1142
1308)	684	297
1309)	1028	1013
1310)	1012	998
1311)	582	993
1312)	1497	1926
1313)	993	985
1314)	1192	344
1315)	1013	973
1316)	831	1687
1317)	435	651
1318)	1020	1030
1319)	1029	978
1320)	1257	570
1321)	47	1341
1322)	1324	1046
1323)	40	1274
1324)	435	307
1325)	1230	1929
1326)	441	1082
1327)	885	262
1328)	1667	1592
1329)	1272	832
1330)	546	412
1331)	1069	1240
1332)	1940	489
1333)	815	1440
1334)	1115	306
1335)	1696	1058
1336)	1432	679
1337)	979	944
1338)	1041	1035
1339)	1911	1121
1340)	966	976
1341)	1036	1025
1342)	1242	1880
1343)	1018	998
1344)	217	1710
1345)	1342	1383
1346)	1430	1730
1347)	1029	1017
1348)	1672	1463
1349)	472	1539
1350)	1944	137
1351)	974	1053
1352)	1003	1032
1353)	288	1764
1354)	513	1287
1355)	1008	1046
1356)	1025	1007
1357)	12	1278
1358)	262	438
1359)	1003	980
1360)	1014	1022
1361)	1013	1061
1362)	1106	25
1363)	1351	7
1364)	996	1029
1365)	488	128
1366)	1019	997
1367)	995	1016
1368)	1193	1591
1369)	1415	1048
1370)	1036	1044
1371)	595	1183
1372)	1032	971
1373)	1711	688
1374)	937	734
1375)	1044	1022
1376)	1019	1017
1377)	961	1040
1378)	1008	725
1379)	1192	869
1380)	1772	685
1381)	81	1482
1382)	1898	1212
1383)	428	46
1384)	1814	1247
1385)	1018	1007
1386)	1559	1098
1387)	57	1807
1388)	187	6
1389)	41	415
1390)	1378	66
1391)	1344	341
1392)	793	1585
1393)	0	1844
1394)	994	1007
1395)	1003	73
1396)	447	1534
1397)	1130	25
1398)	1929	237
1399)	988	976
1400)	1024	1029
1401)	1074	205
1402)	841	70
1403)	1130	1553
1404)	1106	1605
1405)	282	194
1406)	1018	992
1407)	814	1986
1408)	975	902
1409)	1974	1428
1410)	1320	1409
1411)	1599	1663
1412)	950	770
1413)	1013	965
1414)	1400	5
1415)	670	1844
1416)	1555	1074
1417)	1069	267
1418)	338	432
1419)	1006	1001
1420)	1194	1386
1421)	1366	1382
1422)	996	1021
1423)	39	1205
1424)	1046	63
1425)	474	1511
1426)	1783	1805
1427)	1875	742
1428)	1125	403
1429)	993	971
1430)	1171	1785
1431)	448	586
1432)	1409	1302
1433)	954	1041
1434)	901	980
1435)	1039	945
1436)	1771	116
1437)	624	1946
1438)	999	1039
1439)	219	838
1440)	1787	527
1441)	1284	903
1442)	1090	1509
1443)	817	507
1444)	1199	552
1445)	704	1499
1446)	1020	994
1447)	68	1160
1448)	837	42
1449)	1136	1354
1450)	33	38
1451)	1028	1015
1452)	255	95
1453)	859	858
1454)	1677	570
1455)	1009	1003
1456)	768	507
1457)	1691	1463
1458)	1174	64
1459)	585	1650
1460)	1490	1662
1461)	1025	1013
1462)	1809	1153
1463)	1038	1013
1464)	1525	997
1465)	90	594
1466)	1860	857
1467)	731	187
1468)	995	1007
1469)	934	684
1470)	985	1015
1471)	815	406
1472)	1451	757
1473)	1037	1010
1474)	1036	999
1475)	1877	1929
1476)	1041	1015
1477)	180	99
1478)	106	28
1479)	993	991
1480)	69	201
1481)	1029	1029
1482)	1705	895
1483)	1750	1866
1484)	1059	1006
1485)	991	1037
1486)	841	985
1487)	1679	1386
1488)	1835	1174
1489)	1033	1003
1490)	1340	1421
1491)	662	1446
1492)	1012	988
1493)	952	827
1494)	504	1301
1495)	479	993
1496)	1239	1014
1497)	1011	992
1498)	1251	286
1499)	407	1599
1500)	1008	1025
1501)	1509	807
1502)	654	208
1503)	1080	131
1504)	1375	1320
1505)	984	1015
1506)	630	159
1507)	1003	1000
1508)	1157	1795
1509)	1789	1031
1510)	940	1982
1511)	74	598
1512)	638	1751
1513)	1662	365
1514)	1493	606
1515)	1299	364
1516)	1248	1381
1517)	1960	786
1518)	1758	654
1519)	381	1624
1520)	1414	1683
1521)	968	1013
1522)	1595	812
1523)	929	1587
1524)	140	1912
1525)	827	310
1526)	1038	1017
1527)	993	1015
1528)	1344	463
1529)	603	57
1530)	954	1012
1531)	1000	1003
1532)	1608	275
1533)	1022	1026
1534)	1004	971
1535)	140	1961
1536)	418	1590
1537)	276	341
1538)	1511	533
1539)	980	965
1540)	1040	1010
1541)	1629	1879
1542)	1282	789
1543)	994	1267
1544)	986	998
1545)	608	1102
1546)	1967	1278
1547)	1015	1045
1548)	104	819
1549)	448	462
1550)	647	588
1551)	986	1038
1552)	1828	1981
1553)	1001	1044
1554)	1164	556
1555)	403	882
1556)	1005	1016
1557)	1008	1030
1558)	437	361
1559)	484	818
1560)	1012	1032
1561)	958	1175
1562)	1024	1020
1563)	1014	1008
1564)	1217	1996
1565)	989	1006
1566)	288	943
1567)	689	430
1568)	1012	1024
1569)	1763	1125
1570)	1913	522
1571)	427	349
1572)	1026	1031
1573)	1441	1063
1574)	1377	102
1575)	1201	1996
1576)	676	556
1577)	1005	990
1578)	566	1463
1579)	986	1040
1580)	1812	422
1581)	1042	1075
1582)	979	981
1583)	1052	1042
1584)	764	1297
1585)	1934	1248
1586)	1142	1697
1587)	429	495
1588)	984	993
1589)	615	155
1590)	561	284
1591)	960	657
1592)	293	810
1593)	1918	1725
1594)	1168	1448
1595)	1485	889
1596)	1004	1021
1597)	1990	1912
1598)	1657	1727
1599)	994	996
1600)	1231	1047
1601)	1908	401
1602)	68	1053
1603)	1724	236
1604)	1947	1708
1605)	1370	390
1606)	1718	1449
1607)	533	406
1608)	591	386
1609)	220	1390
1610)	1941	63
1611)	1044	969
1612)	1013	989
1613)	1008	979
1614)	1737	1994
1615)	1505	893
1616)	1018	1036
1617)	1012	990
1618)	1006	963
1619)	1018	996
1620)	1641	1691
1621)	117	303
1622)	845	1386
1623)	1317	924
1624)	300	1783
1625)	934	1702
1626)	786	796
1627)	1747	1
1628)	915	104
1629)	1034	999
1630)	978	972
1631)	992	1045
1632)	892	742
1633)	774	1851
1634)	981	994
1635)	1788	449
1636)	943	451
1637)	1044	643
1638)	1947	242
1639)	488	2013
1640)	22	517
1641)	145	1766
1642)	59	164
1643)	1216	208
1644)	945	1754
1645)	759	1372
1646)	254	3
1647)	996	1012
1648)	1520	452
1649)	18	655
1650)	275	71
1651)	1055	986
1652)	1965	18
1653)	1038	1007
1654)	1897	278
1655)	1037	168
1656)	997	1016
1657)	758	950
1658)	1025	1011
1659)	751	1537
1660)	1035	1048
1661)	1009	1023
1662)	259	1526
1663)	997	991
1664)	358	483
1665)	134	170
1666)	1538	1427
1667)	1006	1024
1668)	1002	1056
1669)	1013	1018
1670)	1243	536
1671)	621	1386
1672)	1025	998
1673)	1005	998
1674)	1025	1044
1675)	704	530
1676)	1686	1692
1677)	1069	974
1678)	1497	1925
1679)	661	1872
1680)	724	1586
1681)	83	1029
1682)	1824	391
1683)	978	1075
1684)	1025	978
1685)	998	1028
1686)	1254	255
1687)	1568	86
1688)	991	1005
1689)	1416	1855
1690)	1670	1563
1691)	1007	1019
1692)	85	457
1693)	682	1801
1694)	1283	1165
1695)	986	1009
1696)	984	1001
1697)	978	1010
1698)	1015	1017
1699)	981	1013
1700)	1500	204
1701)	454	1650
1702)	974	1020
1703)	118	1845
1704)	984	998
1705)	1583	1452
1706)	515	1379
1707)	375	616
1708)	1031	1024
1709)	144	1176
1710)	991	985
1711)	737	1182
1712)	619	962
1713)	81	805
1714)	22	1701
1715)	957	1012
1716)	1748	724
1717)	307	751
1718)	1949	671
1719)	540	717
1720)	369	1137
1721)	1133	862
1722)	485	400
1723)	264	1620
1724)	151	1376
1725)	1027	983
1726)	1567	996
1727)	1717	172
1728)	1436	447
1729)	1692	682
1730)	1356	1925
1731)	1366	1965
1732)	770	711
1733)	1969	204
1734)	1107	1569
1735)	1015	992
1736)	1933	901
1737)	1037	996
1738)	1740	757
1739)	226	713
1740)	715	837
1741)	35	555
1742)	1950	269
1743)	1871	251
1744)	1053	1003
1745)	1966	836
1746)	637	1659
1747)	981	1001
1748)	541	1299
1749)	1024	1008
1750)	1943	1423
1751)	396	1346
1752)	78	806
1753)	1731	1118
1754)	1060	1006
1755)	890	1843
1756)	956	1274
1757)	1021	1017
1758)	788	36
1759)	84	29
1760)	1002	996
1761)	546	1654
1762)	94	100
1763)	1846	784
1764)	1932	1358
1765)	427	472
1766)	1221	468
1767)	1551	121
1768)	410	1965
1769)	1939	1523
1770)	1041	1056
1771)	1043	1199
1772)	1845	641
1773)	1656	1161
1774)	930	1944
1775)	744	839
1776)	1803	267
1777)	129	977
1778)	978	1009
1779)	524	866
1780)	1033	1020
1781)	651	149
1782)	1279	191
1783)	1002	975
1784)	1430	1136
1785)	743	1986
1786)	568	1652
1787)	1863	1698
1788)	1035	979
1789)	485	811
1790)	1876	1533
1791)	567	1633
1792)	1017	1001
1793)	1015	988
1794)	1002	989
1795)	994	999
1796)	1004	1013
1797)	1337	1036
1798)	1011	994
1799)	997	980
1800)	1017	971
1801)	1024	1031
1802)	1021	985
1803)	979	942
1804)	1041	1036
1805)	968	972
1806)	1038	1019
1807)	860	1065
1808)	620	457
1809)	1012	1005
1810)	841	15
1811)	859	1384
1812)	1035	1013
1813)	1093	1465
1814)	1568	1863
1815)	506	467
1816)	1503	647
1817)	1239	1895
1818)	370	842
1819)	975	1058
1820)	1597	1519
1821)	140	1031
1822)	746	2001
1823)	1006	1028
1824)	1006	1056
1825)	918	1005
1826)	1014	1013
1827)	1006	976
1828)	1163	1116
1829)	732	228
1830)	2010	715
1831)	1102	1703
1832)	1436	912
1833)	1975	1470
1834)	1408	740
1835)	783	1684
1836)	349	438
1837)	941	1274
1838)	2002	522
1839)	1011	1020
1840)	1844	1660
1841)	1200	1876
1842)	1014	1066
1843)	989	1033
1844)	1009	1006
1845)	992	1018
1846)	872	18
1847)	1042	1037
1848)	1534	131
1849)	1449	112
1850)	1061	613
1851)	133	347
1852)	1712	1043
1853)	1193	1757
1854)	365	505
1855)	1040	966
1856)	450	1433
1857)	595	972
1858)	1206	828
1859)	1824	506
1860)	141	1472
1861)	201	1622
1862)	1714	347
1863)	21	949
1864)	469	1936
1865)	503	217
1866)	1822	261
1867)	781	1229
1868)	634	1691
1869)	1296	1978
1870)	505	1840
1871)	1836	956
1872)	359	1607
1873)	309	989
1874)	1135	939
1875)	1036	1027
1876)	53	971
1877)	1250	1656
1878)	1069	782
1879)	962	1038
1880)	977	1010
1881)	654	1415
1882)	1560	1667
1883)	1332	1065
1884)	1316	356
1885)	1024	1003
1886)	1994	1002
1887)	993	1008
1888)	1032	1247
1889)	1768	227
1890)	1003	998
1891)	1020	1829
1892)	677	1435
1893)	174	1845
1894)	1606	1782
1895)	689	1154
1896)	505	322
1897)	1952	1453
1898)	1370	830
1899)	636	845
1900)	1021	1030
1901)	1014	996
1902)	1009	966
1903)	788	990
1904)	1013	149
1905)	1008	1002
1906)	878	300
1907)	946	1181
1908)	132	641
1909)	293	497
1910)	993	1023
1911)	1014	1027
1912)	337	777
1913)	671	1611
1914)	590	1623
1915)	990	976
1916)	323	1841
1917)	771	1629
1918)	948	1045
1919)	1705	1002
1920)	1036	947
1921)	1156	336
1922)	1847	383
1923)	104	1224
1924)	1179	140
1925)	1830	843
1926)	1485	1499
1927)	1302	1775
1928)	506	1810
1929)	1812	1782
1930)	996	1042
1931)	1020	991
1932)	764	1271
1933)	900	181
1934)	1456	1518
1935)	581	728
1936)	1030	1012
1937)	26	1851
1938)	1530	1463
1939)	125	1528
1940)	1012	1001
1941)	1032	1010
1942)	1035	1018
1943)	813	36
1944)	1444	1184
1945)	1044	1008
1946)	82	672
1947)	1001	1005
1948)	1094	289
1949)	964	845
1950)	948	1716
1951)	987	1011
1952)	1136	96
1953)	1588	256
1954)	1884	386
1955)	658	1186
1956)	1040	1003
1957)	940	807
1958)	1909	1928
1959)	1044	996
1960)	1038	1023
1961)	589	774
1962)	988	991
1963)	821	1228
1964)	1030	1027
1965)	1064	1007
1966)	715	1617
1967)	989	1037
1968)	1084	257
1969)	916	1784
1970)	449	1988
1971)	1033	1002
1972)	1007	995
1973)	1010	993
1974)	622	450
1975)	1383	1802
1976)	598	1287
1977)	979	1022
1978)	1752	1794
1979)	1001	993
1980)	970	1010
1981)	1539	1047
1982)	978	1014
1983)	1972	1420
1984)	1044	1020
1985)	172	854
1986)	994	1008
1987)	961	1016
1988)	982	1057
1989)	993	996
1990)	1019	1031
1991)	1008	982
1992)	974	960
1993)	1048	1016
1994)	234	1268
1995)	973	999
1996)	801	152
1997)	766	459
1998)	1859	551
1999)	980	31
2000)	1508	288
2001)	698	358
2002)	1018	1039
2003)	1698	154
2004)	1419	1596
2005)	987	1044
2006)	216	1712
2007)	1722	670
2008)	1971	32
2009)	1448	921
2010)	1968	1067
2011)	1632	64
2012)	260	93
2013)	999	1018
2014)	1379	1701
2015)	1010	1027
2016)	1013	1036
2017)	153	311
2018)	1020	1017
2019)	718	18
