c Вес дерева = 2136852, диаметр = 65
p edge 3000 2999
e 1 811
e 2 923
e 3 923
e 4 1154
e 5 923
e 6 2900
e 7 1154
e 8 568
e 8 1968
e 9 2304
e 10 923
e 11 2531
e 12 1154
e 13 1154
e 14 1770
e 14 2493
e 15 2196
e 16 1154
e 17 327
e 17 345
e 18 923
e 19 2348
e 20 1911
e 20 2640
e 21 946
e 22 923
e 23 1083
e 23 1202
e 23 2579
e 24 1154
e 25 2195
e 25 2679
e 26 1154
e 27 488
e 27 1208
e 27 1264
e 28 1033
e 29 159
e 29 1169
e 29 2325
e 30 1491
e 30 1658
e 31 1399
e 32 2196
e 33 614
e 34 199
e 34 1249
e 35 1064
e 35 2527
e 36 2900
e 37 923
e 38 392
e 39 1033
e 40 1033
e 41 1005
e 42 1033
e 43 2196
e 44 2900
e 45 2475
e 46 130
e 47 1154
e 48 2196
e 49 811
e 50 421
e 51 2103
e 52 1033
e 53 523
e 53 2023
e 54 1901
e 54 2290
e 54 2978
e 55 1154
e 56 2196
e 57 2475
e 58 1033
e 59 1154
e 60 1154
e 61 1399
e 62 2596
e 63 1154
e 64 1033
e 65 1259
e 66 1309
e 67 923
e 68 1033
e 69 1033
e 70 1154
e 71 2103
e 72 445
e 73 1154
e 74 2900
e 75 1005
e 76 1033
e 77 1005
e 78 811
e 79 1169
e 79 2126
e 79 2198
e 80 2596
e 81 2304
e 82 946
e 83 1154
e 84 1154
e 85 392
e 86 1154
e 87 2596
e 88 618
e 88 2710
e 89 733
e 90 2103
e 91 1154
e 92 1154
e 93 1139
e 93 2825
e 94 923
e 95 1005
e 96 516
e 96 656
e 96 2380
e 97 2596
e 98 279
e 98 970
e 98 1486
e 98 1655
e 98 2091
e 98 2123
e 98 2202
e 98 2420
e 98 2636
e 98 2854
e 98 2928
e 99 1033
e 100 1033
e 101 1154
e 102 1904
e 102 2342
e 103 669
e 104 923
e 105 1005
e 106 1005
e 107 1399
e 108 2196
e 109 1202
e 109 2955
e 110 1033
e 111 392
e 112 1005
e 113 1309
e 114 2304
e 115 2596
e 116 2900
e 117 923
e 118 1479
e 118 2466
e 118 2648
e 119 1005
e 120 1154
e 121 795
e 121 2964
e 122 130
e 123 445
e 123 1087
e 123 1675
e 123 2294
e 124 1500
e 124 2264
e 125 1154
e 126 2475
e 127 222
e 128 946
e 129 252
e 130 282
e 130 340
e 130 377
e 130 517
e 130 582
e 130 634
e 130 653
e 130 763
e 130 779
e 130 987
e 130 1017
e 130 1040
e 130 1157
e 130 1212
e 130 1292
e 130 1367
e 130 1528
e 130 1734
e 130 1815
e 130 1860
e 130 1862
e 130 1872
e 130 1940
e 130 2073
e 130 2200
e 130 2205
e 130 2285
e 130 2419
e 130 2453
e 130 2479
e 130 2604
e 130 2655
e 130 2767
e 130 2921
e 130 2993
e 131 1033
e 132 1154
e 133 1033
e 134 357
e 134 1902
e 135 2900
e 136 923
e 137 1005
e 138 1309
e 139 1033
e 140 923
e 141 281
e 141 936
e 141 2417
e 142 2900
e 143 1033
e 144 811
e 145 1033
e 146 2596
e 147 2596
e 148 222
e 149 1033
e 150 1154
e 151 811
e 152 1154
e 153 1033
e 154 1397
e 154 1485
e 155 1715
e 155 2449
e 156 1127
e 156 1845
e 157 2475
e 158 923
e 159 2103
e 160 727
e 160 2809
e 161 1485
e 162 923
e 163 923
e 164 923
e 165 811
e 166 313
e 166 2064
e 166 2713
e 167 1399
e 168 1283
e 168 2320
e 169 614
e 170 396
e 170 1665
e 170 2703
e 171 811
e 172 1154
e 173 1154
e 174 255
e 174 360
e 174 2503
e 175 2103
e 176 923
e 177 1033
e 178 714
e 178 787
e 178 1511
e 179 2304
e 180 1033
e 181 1154
e 182 423
e 182 1135
e 183 1154
e 184 1033
e 185 421
e 186 2475
e 187 1453
e 188 1154
e 189 811
e 190 1033
e 191 2979
e 192 2225
e 192 2780
e 192 2826
e 192 2890
e 193 2196
e 194 2596
e 195 1154
e 196 1033
e 197 567
e 197 1742
e 197 1827
e 198 1309
e 199 527
e 199 2717
e 200 1005
e 201 222
e 202 1033
e 203 1005
e 204 1033
e 205 1154
e 206 1856
e 207 1154
e 208 1154
e 209 1154
e 210 923
e 211 1154
e 212 1154
e 213 1033
e 214 1399
e 215 1154
e 216 1399
e 217 421
e 218 923
e 219 1154
e 220 1005
e 221 614
e 222 366
e 222 460
e 222 530
e 222 585
e 222 769
e 222 875
e 222 927
e 222 1060
e 222 1082
e 222 1766
e 222 1798
e 222 2363
e 222 2508
e 222 2538
e 222 2673
e 222 2720
e 223 811
e 224 2196
e 225 1033
e 226 1033
e 227 2962
e 228 1033
e 229 1154
e 230 1399
e 231 417
e 231 636
e 232 1154
e 233 2151
e 234 1154
e 235 1033
e 236 1033
e 237 2596
e 238 1308
e 238 1756
e 238 2372
e 239 811
e 240 2596
e 241 421
e 242 1033
e 243 2375
e 244 1845
e 245 923
e 246 1154
e 247 1033
e 248 2304
e 249 923
e 250 1033
e 251 811
e 252 872
e 252 1013
e 252 1310
e 252 2058
e 252 2260
e 252 2682
e 252 2757
e 253 471
e 253 2477
e 253 2701
e 254 2196
e 256 421
e 257 1033
e 258 1154
e 259 1309
e 260 1154
e 261 1005
e 262 1033
e 263 1033
e 264 2596
e 265 1033
e 266 1033
e 267 1856
e 268 1033
e 269 811
e 270 275
e 271 478
e 272 1399
e 273 1033
e 274 2011
e 275 910
e 275 1103
e 276 1154
e 277 2475
e 278 923
e 280 1867
e 280 1936
e 283 2157
e 283 2879
e 284 2233
e 285 421
e 285 1399
e 285 2316
e 285 2596
e 286 1154
e 287 1667
e 287 2463
e 288 2900
e 289 832
e 290 1154
e 291 1033
e 292 923
e 293 774
e 293 1023
e 294 1005
e 295 811
e 296 923
e 297 1033
e 298 1033
e 299 1033
e 300 2196
e 301 811
e 302 1154
e 303 1154
e 304 811
e 305 2196
e 306 1005
e 307 923
e 308 1399
e 309 2900
e 310 1154
e 311 1009
e 311 2593
e 312 1185
e 312 2379
e 314 923
e 315 2900
e 316 1154
e 317 923
e 318 1230
e 319 1033
e 320 923
e 321 2196
e 322 923
e 323 1033
e 324 1309
e 325 1856
e 326 1399
e 327 975
e 328 923
e 329 2531
e 330 2900
e 331 923
e 332 1033
e 333 2596
e 334 1154
e 335 811
e 336 923
e 337 1005
e 338 2405
e 338 2487
e 339 614
e 341 923
e 342 1033
e 343 1005
e 344 1399
e 345 1770
e 345 2482
e 346 1033
e 347 811
e 348 811
e 349 1919
e 350 1154
e 351 1154
e 352 475
e 352 1045
e 353 1033
e 354 1399
e 355 1033
e 356 1033
e 357 1242
e 358 2196
e 359 1154
e 360 1996
e 361 1485
e 362 2160
e 362 2964
e 363 2670
e 364 1033
e 365 811
e 367 1154
e 368 923
e 368 2895
e 369 742
e 370 1033
e 371 2900
e 372 1033
e 373 1033
e 374 2900
e 375 1856
e 376 2900
e 378 2358
e 379 1033
e 380 423
e 380 1016
e 380 2701
e 381 2196
e 382 2475
e 383 923
e 384 923
e 385 1154
e 386 2196
e 387 1033
e 388 1154
e 389 1033
e 390 2475
e 391 946
e 392 890
e 392 934
e 392 1003
e 392 1394
e 392 1636
e 392 2016
e 393 2196
e 394 1005
e 395 923
e 397 1033
e 398 2304
e 399 2371
e 400 2475
e 401 1154
e 402 1005
e 403 1033
e 404 1154
e 405 923
e 406 1053
e 406 2148
e 406 2867
e 407 1033
e 408 1005
e 409 1154
e 410 892
e 410 1564
e 410 1762
e 411 1309
e 412 1033
e 413 1498
e 414 1113
e 414 2231
e 414 2616
e 415 1154
e 416 1399
e 417 561
e 417 1222
e 418 2263
e 419 625
e 420 421
e 421 793
e 421 861
e 421 900
e 421 1119
e 421 1296
e 421 1307
e 421 1358
e 421 1376
e 421 1726
e 421 1783
e 421 1784
e 421 1880
e 421 1886
e 421 2261
e 421 2332
e 421 2652
e 422 923
e 423 509
e 423 1808
e 424 923
e 425 2596
e 426 1005
e 427 1033
e 428 2596
e 429 2304
e 430 1154
e 431 637
e 431 795
e 432 1154
e 433 1175
e 433 1739
e 434 923
e 435 2103
e 436 1033
e 437 1033
e 438 1154
e 439 811
e 440 1033
e 441 1033
e 442 923
e 443 811
e 444 923
e 445 553
e 445 801
e 446 1033
e 447 652
e 447 766
e 447 802
e 447 1390
e 447 1430
e 448 1154
e 449 811
e 450 1033
e 451 1005
e 452 2475
e 453 727
e 453 1626
e 454 614
e 455 1154
e 456 923
e 457 1033
e 458 2475
e 459 2475
e 461 1033
e 462 811
e 463 1309
e 464 1282
e 464 2480
e 465 2900
e 466 1154
e 467 1005
e 468 1154
e 469 2103
e 470 786
e 470 2243
e 471 1729
e 472 1154
e 473 597
e 473 1902
e 473 2109
e 474 1033
e 475 618
e 476 1033
e 477 1033
e 478 783
e 478 957
e 478 1816
e 478 1912
e 478 1968
e 478 2549
e 478 2663
e 479 1756
e 479 2498
e 480 923
e 481 1005
e 482 2196
e 483 1033
e 484 1399
e 485 1154
e 486 923
e 487 1154
e 488 1498
e 489 1154
e 490 2196
e 491 964
e 491 1040
e 491 1500
e 492 2196
e 493 1154
e 494 1215
e 494 1560
e 495 1033
e 496 1885
e 497 1033
e 498 2512
e 499 923
e 500 1934
e 500 2058
e 501 923
e 502 923
e 503 1154
e 504 923
e 505 1154
e 506 1154
e 507 1154
e 508 2596
e 509 2955
e 510 1382
e 511 1033
e 512 1033
e 513 2475
e 514 1399
e 515 1033
e 516 1936
e 518 1154
e 519 1005
e 520 2196
e 521 1202
e 521 1992
e 522 923
e 524 811
e 525 1309
e 526 1033
e 527 1593
e 528 614
e 529 1033
e 531 1259
e 532 765
e 532 1594
e 532 2912
e 533 2596
e 534 923
e 535 1033
e 536 1108
e 537 2531
e 538 1154
e 539 2304
e 540 1033
e 541 811
e 542 2103
e 543 1154
e 544 1154
e 545 2900
e 546 1154
e 547 1033
e 548 1154
e 549 923
e 550 1033
e 551 923
e 552 1154
e 553 1472
e 553 2099
e 553 2768
e 554 923
e 555 1283
e 555 1988
e 556 811
e 557 1154
e 558 1154
e 559 923
e 560 2304
e 561 1290
e 562 1154
e 563 2196
e 564 1033
e 565 2900
e 566 1033
e 567 1932
e 568 2153
e 569 1906
e 569 2636
e 570 2596
e 571 695
e 571 2077
e 571 2744
e 572 1005
e 573 1154
e 574 994
e 574 2954
e 575 1033
e 576 1309
e 577 2077
e 577 2603
e 578 1033
e 579 1340
e 579 2749
e 580 1033
e 581 1005
e 583 1033
e 584 1315
e 584 2935
e 585 1163
e 585 1317
e 586 1154
e 587 1154
e 588 1033
e 589 1005
e 590 1154
e 591 2900
e 592 614
e 593 1399
e 594 1154
e 595 923
e 596 1033
e 597 1545
e 598 923
e 599 1154
e 600 1033
e 601 923
e 602 1033
e 603 1154
e 604 1033
e 605 1033
e 606 1154
e 607 776
e 607 1330
e 608 1154
e 609 1033
e 610 2900
e 611 806
e 612 923
e 613 1154
e 614 627
e 614 715
e 614 734
e 614 888
e 614 933
e 614 999
e 614 1038
e 614 1328
e 614 1339
e 614 1443
e 614 1487
e 614 1503
e 614 1524
e 614 1611
e 614 1634
e 614 1699
e 614 1733
e 614 1771
e 614 1955
e 614 1970
e 614 1991
e 614 2030
e 614 2034
e 614 2050
e 614 2116
e 614 2217
e 614 2272
e 614 2326
e 614 2366
e 614 2412
e 614 2491
e 614 2499
e 614 2520
e 614 2695
e 614 2732
e 614 2802
e 614 2840
e 615 1154
e 616 1033
e 617 923
e 618 2632
e 619 2900
e 620 1154
e 621 923
e 622 1033
e 623 1033
e 624 1309
e 625 2048
e 625 2754
e 626 1154
e 628 2596
e 629 923
e 630 1725
e 631 1033
e 632 2375
e 633 1459
e 633 2575
e 635 923
e 636 828
e 636 2382
e 637 1219
e 638 811
e 639 2196
e 640 700
e 640 802
e 640 979
e 640 2801
e 641 1154
e 642 1382
e 642 2777
e 643 958
e 643 2584
e 644 811
e 645 811
e 646 1154
e 647 1033
e 648 2103
e 649 923
e 650 946
e 651 2531
e 654 1154
e 655 2371
e 656 2498
e 657 1042
e 657 1393
e 658 1154
e 659 1154
e 660 1259
e 660 2879
e 661 811
e 662 2596
e 663 1033
e 664 873
e 664 1545
e 665 1184
e 665 2225
e 666 1033
e 667 1988
e 668 2900
e 669 1411
e 669 1904
e 670 1033
e 671 726
e 671 1769
e 672 923
e 673 1033
e 674 1033
e 675 1154
e 676 1154
e 677 2596
e 678 2596
e 679 2304
e 680 1063
e 680 1415
e 681 1154
e 682 1419
e 683 1154
e 684 2375
e 685 923
e 686 923
e 687 1154
e 688 1033
e 689 1154
e 690 1154
e 691 811
e 692 2531
e 693 1154
e 694 2596
e 696 1033
e 697 1154
e 698 1154
e 699 2596
e 701 2196
e 702 2900
e 703 1154
e 704 1154
e 705 2596
e 706 1033
e 707 776
e 707 1635
e 708 923
e 709 2900
e 710 1033
e 711 2900
e 712 1033
e 713 1154
e 714 729
e 714 1565
e 716 2596
e 717 811
e 718 1154
e 719 1154
e 720 2531
e 721 923
e 722 1154
e 723 774
e 723 2149
e 724 2225
e 724 2250
e 725 1154
e 726 1412
e 726 2518
e 728 811
e 729 1302
e 730 1485
e 731 742
e 731 1064
e 731 1470
e 732 1033
e 733 1729
e 733 2164
e 735 1033
e 736 1154
e 737 916
e 737 1469
e 737 2166
e 738 1399
e 739 923
e 740 2196
e 741 923
e 742 1458
e 743 1033
e 744 2900
e 745 2196
e 746 2196
e 747 1856
e 748 2103
e 749 1399
e 750 2475
e 751 1033
e 752 2531
e 753 1154
e 754 1005
e 755 856
e 755 2195
e 756 776
e 756 1994
e 757 1399
e 758 1005
e 759 2596
e 760 1033
e 761 2475
e 762 1154
e 764 1154
e 767 923
e 768 923
e 770 2103
e 771 2900
e 772 1033
e 773 1154
e 774 1446
e 774 2493
e 775 923
e 777 1033
e 778 2231
e 780 1108
e 780 1411
e 781 923
e 782 811
e 784 1033
e 785 1196
e 785 2872
e 786 1497
e 786 2231
e 787 2579
e 788 923
e 789 2304
e 790 2103
e 791 1399
e 792 1154
e 794 1033
e 796 811
e 797 1033
e 798 2596
e 799 923
e 800 2475
e 802 2021
e 802 2979
e 803 923
e 804 811
e 805 1033
e 806 1287
e 806 1379
e 806 1395
e 806 2914
e 806 2918
e 807 1033
e 808 1033
e 809 1005
e 810 1154
e 811 870
e 811 887
e 811 925
e 811 953
e 811 1090
e 811 1093
e 811 1112
e 811 1123
e 811 1131
e 811 1141
e 811 1211
e 811 1217
e 811 1244
e 811 1295
e 811 1341
e 811 1352
e 811 1418
e 811 1461
e 811 1467
e 811 1468
e 811 1541
e 811 1557
e 811 1610
e 811 1639
e 811 1644
e 811 1661
e 811 1677
e 811 1702
e 811 1759
e 811 1767
e 811 1775
e 811 1789
e 811 1820
e 811 1823
e 811 1857
e 811 1868
e 811 1881
e 811 1903
e 811 1933
e 811 1937
e 811 1990
e 811 1993
e 811 2006
e 811 2013
e 811 2056
e 811 2057
e 811 2105
e 811 2122
e 811 2131
e 811 2155
e 811 2221
e 811 2223
e 811 2274
e 811 2307
e 811 2339
e 811 2357
e 811 2360
e 811 2374
e 811 2400
e 811 2428
e 811 2439
e 811 2450
e 811 2539
e 811 2559
e 811 2566
e 811 2589
e 811 2597
e 811 2680
e 811 2690
e 811 2740
e 811 2759
e 811 2772
e 811 2822
e 811 2828
e 811 2880
e 811 2882
e 811 2899
e 811 2916
e 811 2961
e 812 1033
e 813 1154
e 814 2596
e 815 923
e 816 1154
e 817 2531
e 818 1033
e 819 1033
e 820 2596
e 821 2196
e 822 1154
e 823 1154
e 824 923
e 825 1154
e 826 1259
e 827 1033
e 828 903
e 828 1230
e 828 2064
e 829 923
e 830 1033
e 831 2475
e 832 1535
e 832 1549
e 832 2286
e 833 1033
e 834 2196
e 835 2596
e 836 1005
e 837 2196
e 838 1399
e 839 1309
e 840 1033
e 841 1184
e 841 1742
e 842 2900
e 843 1033
e 844 923
e 845 923
e 846 1309
e 847 1033
e 848 1309
e 849 1033
e 850 919
e 850 2442
e 851 2304
e 852 1154
e 853 1154
e 854 1154
e 855 923
e 856 1397
e 857 1033
e 858 2196
e 859 1260
e 860 1350
e 860 1470
e 860 1720
e 862 2103
e 863 923
e 864 1033
e 865 1005
e 866 1033
e 867 923
e 868 1154
e 869 923
e 871 2596
e 873 1454
e 874 923
e 876 1005
e 877 1033
e 878 923
e 879 923
e 880 1741
e 880 2302
e 881 1033
e 882 1399
e 883 923
e 884 923
e 885 1033
e 886 1560
e 886 2320
e 889 923
e 891 962
e 891 1140
e 892 1140
e 892 2331
e 893 1222
e 893 1945
e 894 1154
e 895 923
e 896 1033
e 897 1033
e 898 2596
e 899 1005
e 901 1033
e 902 2304
e 904 2475
e 905 1828
e 906 1033
e 907 2979
e 908 1033
e 909 1033
e 910 2770
e 911 1407
e 911 2962
e 912 1309
e 913 1033
e 914 2596
e 915 1399
e 917 1154
e 918 1154
e 919 1163
e 919 2165
e 920 1154
e 921 1485
e 922 2596
e 923 932
e 923 942
e 923 956
e 923 961
e 923 978
e 923 986
e 923 988
e 923 991
e 923 997
e 923 1021
e 923 1028
e 923 1032
e 923 1039
e 923 1041
e 923 1049
e 923 1057
e 923 1065
e 923 1075
e 923 1076
e 923 1094
e 923 1102
e 923 1118
e 923 1136
e 923 1149
e 923 1160
e 923 1168
e 923 1171
e 923 1178
e 923 1188
e 923 1193
e 923 1199
e 923 1225
e 923 1226
e 923 1233
e 923 1236
e 923 1257
e 923 1262
e 923 1265
e 923 1272
e 923 1273
e 923 1286
e 923 1304
e 923 1316
e 923 1322
e 923 1323
e 923 1342
e 923 1343
e 923 1346
e 923 1372
e 923 1383
e 923 1389
e 923 1401
e 923 1403
e 923 1427
e 923 1428
e 923 1445
e 923 1460
e 923 1465
e 923 1489
e 923 1492
e 923 1501
e 923 1513
e 923 1534
e 923 1546
e 923 1554
e 923 1566
e 923 1598
e 923 1603
e 923 1627
e 923 1629
e 923 1642
e 923 1654
e 923 1664
e 923 1669
e 923 1673
e 923 1674
e 923 1681
e 923 1684
e 923 1686
e 923 1687
e 923 1688
e 923 1689
e 923 1690
e 923 1692
e 923 1705
e 923 1706
e 923 1710
e 923 1716
e 923 1722
e 923 1723
e 923 1732
e 923 1735
e 923 1747
e 923 1750
e 923 1752
e 923 1764
e 923 1781
e 923 1785
e 923 1796
e 923 1799
e 923 1801
e 923 1812
e 923 1813
e 923 1817
e 923 1818
e 923 1830
e 923 1831
e 923 1832
e 923 1848
e 923 1854
e 923 1858
e 923 1865
e 923 1866
e 923 1869
e 923 1870
e 923 1874
e 923 1876
e 923 1877
e 923 1882
e 923 1888
e 923 1899
e 923 1905
e 923 1908
e 923 1916
e 923 1917
e 923 1918
e 923 1924
e 923 1947
e 923 1948
e 923 1951
e 923 1958
e 923 1959
e 923 1971
e 923 1974
e 923 1976
e 923 1981
e 923 2000
e 923 2005
e 923 2010
e 923 2017
e 923 2029
e 923 2066
e 923 2068
e 923 2075
e 923 2079
e 923 2084
e 923 2087
e 923 2092
e 923 2098
e 923 2114
e 923 2118
e 923 2129
e 923 2130
e 923 2135
e 923 2145
e 923 2154
e 923 2158
e 923 2170
e 923 2174
e 923 2179
e 923 2180
e 923 2204
e 923 2210
e 923 2215
e 923 2220
e 923 2253
e 923 2255
e 923 2257
e 923 2258
e 923 2277
e 923 2279
e 923 2282
e 923 2287
e 923 2292
e 923 2305
e 923 2315
e 923 2318
e 923 2323
e 923 2327
e 923 2343
e 923 2351
e 923 2359
e 923 2365
e 923 2370
e 923 2381
e 923 2384
e 923 2388
e 923 2392
e 923 2401
e 923 2407
e 923 2413
e 923 2418
e 923 2421
e 923 2426
e 923 2427
e 923 2438
e 923 2441
e 923 2443
e 923 2447
e 923 2448
e 923 2455
e 923 2471
e 923 2476
e 923 2505
e 923 2506
e 923 2513
e 923 2526
e 923 2534
e 923 2536
e 923 2558
e 923 2563
e 923 2571
e 923 2572
e 923 2594
e 923 2598
e 923 2607
e 923 2619
e 923 2628
e 923 2631
e 923 2635
e 923 2650
e 923 2657
e 923 2664
e 923 2675
e 923 2677
e 923 2684
e 923 2687
e 923 2712
e 923 2716
e 923 2736
e 923 2745
e 923 2751
e 923 2752
e 923 2763
e 923 2769
e 923 2778
e 923 2785
e 923 2793
e 923 2800
e 923 2807
e 923 2830
e 923 2838
e 923 2848
e 923 2856
e 923 2858
e 923 2863
e 923 2866
e 923 2870
e 923 2893
e 923 2936
e 923 2943
e 923 2949
e 923 2974
e 923 2981
e 923 2987
e 923 2998
e 924 2103
e 926 2196
e 928 2596
e 929 1154
e 930 1033
e 931 1033
e 934 2371
e 934 2747
e 935 1005
e 937 1033
e 938 1033
e 939 1429
e 939 1656
e 940 2151
e 941 1936
e 943 1005
e 944 2596
e 945 1517
e 945 1522
e 945 1728
e 945 2121
e 945 2841
e 946 977
e 946 1187
e 946 1287
e 946 1396
e 946 1883
e 946 2276
e 946 2933
e 946 2969
e 947 1154
e 948 1033
e 949 2371
e 950 1033
e 951 1033
e 952 1682
e 954 2304
e 955 2596
e 958 2944
e 959 2196
e 960 1154
e 962 2333
e 962 2861
e 963 2596
e 964 1309
e 965 1033
e 966 2900
e 967 1005
e 968 2900
e 969 2225
e 971 1154
e 972 2038
e 972 2273
e 973 1033
e 974 1005
e 976 2475
e 980 2035
e 980 2093
e 981 1033
e 982 1154
e 983 1658
e 983 2417
e 984 2900
e 985 1309
e 989 2596
e 990 1154
e 992 2548
e 993 2596
e 994 2463
e 995 1033
e 996 2900
e 998 1154
e 1000 2596
e 1001 1033
e 1002 1479
e 1004 1005
e 1005 1035
e 1005 1055
e 1005 1078
e 1005 1098
e 1005 1137
e 1005 1138
e 1005 1164
e 1005 1167
e 1005 1241
e 1005 1250
e 1005 1276
e 1005 1333
e 1005 1338
e 1005 1352
e 1005 1409
e 1005 1414
e 1005 1433
e 1005 1464
e 1005 1474
e 1005 1480
e 1005 1579
e 1005 1596
e 1005 1597
e 1005 1600
e 1005 1616
e 1005 1657
e 1005 1694
e 1005 1772
e 1005 1779
e 1005 1795
e 1005 1797
e 1005 1853
e 1005 1897
e 1005 1920
e 1005 1923
e 1005 1925
e 1005 1950
e 1005 1998
e 1005 2007
e 1005 2019
e 1005 2037
e 1005 2042
e 1005 2059
e 1005 2062
e 1005 2065
e 1005 2144
e 1005 2187
e 1005 2212
e 1005 2240
e 1005 2248
e 1005 2256
e 1005 2313
e 1005 2385
e 1005 2402
e 1005 2461
e 1005 2468
e 1005 2478
e 1005 2488
e 1005 2490
e 1005 2495
e 1005 2552
e 1005 2606
e 1005 2615
e 1005 2625
e 1005 2649
e 1005 2656
e 1005 2660
e 1005 2667
e 1005 2681
e 1005 2696
e 1005 2729
e 1005 2748
e 1005 2760
e 1005 2792
e 1005 2796
e 1005 2814
e 1005 2836
e 1005 2864
e 1005 2881
e 1005 2889
e 1005 2924
e 1005 2937
e 1005 2938
e 1005 2983
e 1006 2596
e 1007 2900
e 1008 1154
e 1010 1154
e 1011 1033
e 1012 2304
e 1014 1309
e 1015 2531
e 1016 1360
e 1018 1154
e 1019 1885
e 1020 2596
e 1022 1154
e 1024 1154
e 1025 1033
e 1026 1399
e 1027 2475
e 1029 2196
e 1030 1399
e 1031 1315
e 1031 1745
e 1031 2028
e 1033 1050
e 1033 1059
e 1033 1061
e 1033 1069
e 1033 1072
e 1033 1074
e 1033 1077
e 1033 1089
e 1033 1095
e 1033 1097
e 1033 1099
e 1033 1109
e 1033 1122
e 1033 1126
e 1033 1145
e 1033 1147
e 1033 1150
e 1033 1151
e 1033 1156
e 1033 1158
e 1033 1162
e 1033 1165
e 1033 1176
e 1033 1177
e 1033 1200
e 1033 1207
e 1033 1214
e 1033 1216
e 1033 1223
e 1033 1234
e 1033 1238
e 1033 1245
e 1033 1246
e 1033 1252
e 1033 1254
e 1033 1261
e 1033 1263
e 1033 1266
e 1033 1269
e 1033 1277
e 1033 1279
e 1033 1281
e 1033 1284
e 1033 1293
e 1033 1297
e 1033 1298
e 1033 1301
e 1033 1303
e 1033 1311
e 1033 1324
e 1033 1325
e 1033 1326
e 1033 1351
e 1033 1353
e 1033 1361
e 1033 1362
e 1033 1373
e 1033 1380
e 1033 1391
e 1033 1405
e 1033 1406
e 1033 1413
e 1033 1417
e 1033 1424
e 1033 1425
e 1033 1436
e 1033 1440
e 1033 1448
e 1033 1450
e 1033 1463
e 1033 1473
e 1033 1483
e 1033 1490
e 1033 1493
e 1033 1499
e 1033 1507
e 1033 1510
e 1033 1523
e 1033 1526
e 1033 1542
e 1033 1548
e 1033 1552
e 1033 1567
e 1033 1569
e 1033 1574
e 1033 1575
e 1033 1577
e 1033 1586
e 1033 1591
e 1033 1592
e 1033 1602
e 1033 1606
e 1033 1607
e 1033 1608
e 1033 1621
e 1033 1628
e 1033 1638
e 1033 1641
e 1033 1647
e 1033 1663
e 1033 1666
e 1033 1668
e 1033 1700
e 1033 1704
e 1033 1714
e 1033 1717
e 1033 1746
e 1033 1761
e 1033 1765
e 1033 1788
e 1033 1794
e 1033 1803
e 1033 1804
e 1033 1806
e 1033 1822
e 1033 1826
e 1033 1833
e 1033 1835
e 1033 1837
e 1033 1839
e 1033 1840
e 1033 1843
e 1033 1844
e 1033 1849
e 1033 1878
e 1033 1894
e 1033 1895
e 1033 1896
e 1033 1898
e 1033 1914
e 1033 1921
e 1033 1922
e 1033 1939
e 1033 1943
e 1033 1949
e 1033 1963
e 1033 1972
e 1033 1975
e 1033 1978
e 1033 1982
e 1033 1983
e 1033 1986
e 1033 1989
e 1033 1995
e 1033 2004
e 1033 2008
e 1033 2009
e 1033 2012
e 1033 2014
e 1033 2015
e 1033 2020
e 1033 2027
e 1033 2031
e 1033 2033
e 1033 2045
e 1033 2052
e 1033 2055
e 1033 2060
e 1033 2061
e 1033 2067
e 1033 2070
e 1033 2076
e 1033 2089
e 1033 2101
e 1033 2115
e 1033 2117
e 1033 2124
e 1033 2133
e 1033 2141
e 1033 2143
e 1033 2152
e 1033 2156
e 1033 2169
e 1033 2172
e 1033 2173
e 1033 2175
e 1033 2177
e 1033 2178
e 1033 2183
e 1033 2193
e 1033 2203
e 1033 2207
e 1033 2216
e 1033 2226
e 1033 2228
e 1033 2230
e 1033 2236
e 1033 2249
e 1033 2251
e 1033 2262
e 1033 2265
e 1033 2267
e 1033 2269
e 1033 2271
e 1033 2278
e 1033 2283
e 1033 2284
e 1033 2298
e 1033 2301
e 1033 2303
e 1033 2308
e 1033 2309
e 1033 2312
e 1033 2334
e 1033 2335
e 1033 2336
e 1033 2337
e 1033 2341
e 1033 2345
e 1033 2352
e 1033 2355
e 1033 2373
e 1033 2393
e 1033 2397
e 1033 2403
e 1033 2409
e 1033 2411
e 1033 2414
e 1033 2415
e 1033 2423
e 1033 2424
e 1033 2425
e 1033 2430
e 1033 2434
e 1033 2436
e 1033 2444
e 1033 2445
e 1033 2446
e 1033 2454
e 1033 2469
e 1033 2473
e 1033 2484
e 1033 2486
e 1033 2501
e 1033 2504
e 1033 2507
e 1033 2511
e 1033 2524
e 1033 2525
e 1033 2530
e 1033 2532
e 1033 2541
e 1033 2545
e 1033 2546
e 1033 2554
e 1033 2560
e 1033 2561
e 1033 2564
e 1033 2567
e 1033 2568
e 1033 2578
e 1033 2580
e 1033 2581
e 1033 2582
e 1033 2585
e 1033 2586
e 1033 2592
e 1033 2609
e 1033 2610
e 1033 2623
e 1033 2624
e 1033 2626
e 1033 2627
e 1033 2637
e 1033 2642
e 1033 2658
e 1033 2665
e 1033 2685
e 1033 2686
e 1033 2697
e 1033 2706
e 1033 2708
e 1033 2718
e 1033 2725
e 1033 2727
e 1033 2728
e 1033 2734
e 1033 2741
e 1033 2750
e 1033 2755
e 1033 2773
e 1033 2776
e 1033 2787
e 1033 2788
e 1033 2791
e 1033 2795
e 1033 2797
e 1033 2799
e 1033 2810
e 1033 2813
e 1033 2816
e 1033 2817
e 1033 2819
e 1033 2821
e 1033 2831
e 1033 2832
e 1033 2834
e 1033 2839
e 1033 2843
e 1033 2846
e 1033 2849
e 1033 2850
e 1033 2855
e 1033 2873
e 1033 2876
e 1033 2877
e 1033 2884
e 1033 2886
e 1033 2888
e 1033 2894
e 1033 2920
e 1033 2923
e 1033 2926
e 1033 2927
e 1033 2929
e 1033 2930
e 1033 2932
e 1033 2941
e 1033 2947
e 1033 2948
e 1033 2951
e 1033 2956
e 1033 2959
e 1033 2973
e 1033 2975
e 1033 2982
e 1033 2991
e 1033 2996
e 1034 2596
e 1036 1154
e 1037 1154
e 1042 2149
e 1043 1154
e 1044 1154
e 1045 1588
e 1045 2150
e 1046 2596
e 1047 1504
e 1047 2018
e 1048 2379
e 1051 2432
e 1051 2946
e 1052 2900
e 1053 1103
e 1054 2196
e 1056 1154
e 1058 1219
e 1058 2670
e 1062 2196
e 1063 1774
e 1063 2523
e 1066 2371
e 1067 2196
e 1068 2531
e 1070 2596
e 1071 1399
e 1073 1154
e 1079 2900
e 1080 2596
e 1081 1309
e 1083 2199
e 1084 2900
e 1085 1154
e 1086 1154
e 1087 1915
e 1088 1749
e 1091 1154
e 1092 2304
e 1096 2103
e 1100 2196
e 1101 2531
e 1103 2562
e 1104 2596
e 1105 2196
e 1106 2164
e 1106 2766
e 1107 2103
e 1110 1309
e 1111 1154
e 1113 2570
e 1114 1154
e 1115 2596
e 1116 1382
e 1117 2596
e 1120 1154
e 1121 1154
e 1124 1856
e 1125 1154
e 1127 2233
e 1128 1154
e 1129 2378
e 1130 2596
e 1132 1154
e 1133 2196
e 1134 1154
e 1135 2542
e 1142 2596
e 1143 1852
e 1143 2113
e 1144 2900
e 1146 2196
e 1148 1154
e 1152 1399
e 1153 1485
e 1154 1155
e 1154 1170
e 1154 1179
e 1154 1180
e 1154 1191
e 1154 1192
e 1154 1194
e 1154 1195
e 1154 1197
e 1154 1201
e 1154 1203
e 1154 1205
e 1154 1213
e 1154 1221
e 1154 1229
e 1154 1232
e 1154 1239
e 1154 1243
e 1154 1258
e 1154 1274
e 1154 1280
e 1154 1285
e 1154 1291
e 1154 1299
e 1154 1306
e 1154 1320
e 1154 1321
e 1154 1331
e 1154 1332
e 1154 1348
e 1154 1354
e 1154 1355
e 1154 1363
e 1154 1364
e 1154 1365
e 1154 1366
e 1154 1371
e 1154 1374
e 1154 1377
e 1154 1381
e 1154 1400
e 1154 1420
e 1154 1421
e 1154 1432
e 1154 1435
e 1154 1437
e 1154 1451
e 1154 1466
e 1154 1475
e 1154 1482
e 1154 1494
e 1154 1495
e 1154 1502
e 1154 1506
e 1154 1518
e 1154 1527
e 1154 1533
e 1154 1547
e 1154 1550
e 1154 1551
e 1154 1556
e 1154 1570
e 1154 1571
e 1154 1572
e 1154 1581
e 1154 1583
e 1154 1601
e 1154 1624
e 1154 1630
e 1154 1650
e 1154 1651
e 1154 1659
e 1154 1662
e 1154 1671
e 1154 1672
e 1154 1679
e 1154 1680
e 1154 1685
e 1154 1712
e 1154 1713
e 1154 1718
e 1154 1730
e 1154 1737
e 1154 1738
e 1154 1751
e 1154 1755
e 1154 1758
e 1154 1773
e 1154 1782
e 1154 1786
e 1154 1791
e 1154 1805
e 1154 1819
e 1154 1834
e 1154 1838
e 1154 1841
e 1154 1846
e 1154 1855
e 1154 1861
e 1154 1863
e 1154 1871
e 1154 1884
e 1154 1890
e 1154 1892
e 1154 1893
e 1154 1907
e 1154 1927
e 1154 1929
e 1154 1931
e 1154 1938
e 1154 1961
e 1154 1984
e 1154 1985
e 1154 1997
e 1154 2001
e 1154 2002
e 1154 2022
e 1154 2024
e 1154 2025
e 1154 2036
e 1154 2049
e 1154 2074
e 1154 2085
e 1154 2088
e 1154 2094
e 1154 2096
e 1154 2111
e 1154 2112
e 1154 2119
e 1154 2125
e 1154 2132
e 1154 2137
e 1154 2142
e 1154 2146
e 1154 2161
e 1154 2168
e 1154 2176
e 1154 2184
e 1154 2190
e 1154 2191
e 1154 2192
e 1154 2194
e 1154 2206
e 1154 2208
e 1154 2209
e 1154 2227
e 1154 2229
e 1154 2234
e 1154 2235
e 1154 2238
e 1154 2244
e 1154 2247
e 1154 2254
e 1154 2259
e 1154 2275
e 1154 2280
e 1154 2295
e 1154 2297
e 1154 2310
e 1154 2314
e 1154 2317
e 1154 2319
e 1154 2325
e 1154 2328
e 1154 2329
e 1154 2346
e 1154 2354
e 1154 2367
e 1154 2368
e 1154 2369
e 1154 2383
e 1154 2386
e 1154 2389
e 1154 2394
e 1154 2395
e 1154 2398
e 1154 2408
e 1154 2416
e 1154 2422
e 1154 2451
e 1154 2452
e 1154 2481
e 1154 2497
e 1154 2500
e 1154 2509
e 1154 2515
e 1154 2516
e 1154 2517
e 1154 2522
e 1154 2540
e 1154 2547
e 1154 2551
e 1154 2555
e 1154 2588
e 1154 2590
e 1154 2591
e 1154 2599
e 1154 2602
e 1154 2608
e 1154 2611
e 1154 2618
e 1154 2629
e 1154 2639
e 1154 2674
e 1154 2676
e 1154 2698
e 1154 2699
e 1154 2705
e 1154 2707
e 1154 2709
e 1154 2719
e 1154 2722
e 1154 2723
e 1154 2730
e 1154 2731
e 1154 2738
e 1154 2739
e 1154 2742
e 1154 2765
e 1154 2774
e 1154 2779
e 1154 2781
e 1154 2782
e 1154 2783
e 1154 2786
e 1154 2789
e 1154 2790
e 1154 2794
e 1154 2805
e 1154 2808
e 1154 2811
e 1154 2823
e 1154 2827
e 1154 2835
e 1154 2851
e 1154 2869
e 1154 2874
e 1154 2892
e 1154 2896
e 1154 2897
e 1154 2907
e 1154 2908
e 1154 2909
e 1154 2913
e 1154 2919
e 1154 2922
e 1154 2945
e 1154 2958
e 1154 2963
e 1154 2965
e 1154 2966
e 1154 2971
e 1154 2984
e 1154 2989
e 1154 2990
e 1154 2994
e 1154 3000
e 1159 2475
e 1161 2196
e 1163 2286
e 1166 2531
e 1169 2316
e 1172 1485
e 1173 1309
e 1174 2596
e 1175 2077
e 1181 2900
e 1182 2196
e 1183 1411
e 1183 2569
e 1184 2164
e 1185 1242
e 1185 1699
e 1186 2596
e 1189 1399
e 1190 1309
e 1198 2196
e 1204 2596
e 1206 1259
e 1208 2952
e 1209 1357
e 1209 2647
e 1210 2196
e 1215 1626
e 1218 1335
e 1218 1359
e 1218 2613
e 1219 2148
e 1220 1309
e 1224 1399
e 1227 2761
e 1228 2196
e 1231 2475
e 1235 1312
e 1235 1580
e 1237 1309
e 1240 1290
e 1240 1992
e 1242 2630
e 1247 2596
e 1248 1309
e 1249 2078
e 1251 2103
e 1253 1856
e 1255 1399
e 1256 2196
e 1259 2678
e 1260 1956
e 1260 2679
e 1264 2233
e 1264 2640
e 1267 2531
e 1268 1399
e 1270 1399
e 1271 1988
e 1275 2596
e 1278 2304
e 1282 2182
e 1287 2316
e 1288 2304
e 1289 2103
e 1290 2641
e 1294 1360
e 1294 1496
e 1300 1565
e 1302 1906
e 1305 2375
e 1308 2749
e 1309 1314
e 1309 1530
e 1309 1536
e 1309 1582
e 1309 1584
e 1309 1589
e 1309 1633
e 1309 1778
e 1309 1790
e 1309 1792
e 1309 1793
e 1309 1879
e 1309 1941
e 1309 1952
e 1309 1957
e 1309 1960
e 1309 1977
e 1309 2026
e 1309 2159
e 1309 2213
e 1309 2288
e 1309 2338
e 1309 2349
e 1309 2612
e 1309 2662
e 1309 2669
e 1309 2711
e 1309 2715
e 1309 2985
e 1309 2995
e 1312 2097
e 1312 2372
e 1313 2596
e 1318 2900
e 1319 2103
e 1327 2196
e 1329 1398
e 1329 2109
e 1334 2196
e 1335 1856
e 1335 1885
e 1335 2900
e 1336 2596
e 1337 2103
e 1340 2954
e 1344 2900
e 1345 2196
e 1347 2596
e 1349 2596
e 1352 1774
e 1352 2196
e 1356 2596
e 1357 2483
e 1357 2641
e 1357 2654
e 1359 2744
e 1368 2596
e 1369 2603
e 1370 2196
e 1375 2078
e 1375 2670
e 1378 1749
e 1382 1739
e 1382 2081
e 1384 2432
e 1385 2596
e 1386 1399
e 1387 2531
e 1388 2103
e 1392 2596
e 1393 1453
e 1393 2494
e 1399 1416
e 1399 1505
e 1399 1555
e 1399 1623
e 1399 1645
e 1399 1676
e 1399 1708
e 1399 1727
e 1399 1731
e 1399 1754
e 1399 1760
e 1399 1763
e 1399 1802
e 1399 1807
e 1399 1887
e 1399 1889
e 1399 1900
e 1399 1966
e 1399 1987
e 1399 2039
e 1399 2071
e 1399 2090
e 1399 2102
e 1399 2167
e 1399 2185
e 1399 2214
e 1399 2237
e 1399 2266
e 1399 2311
e 1399 2362
e 1399 2377
e 1399 2391
e 1399 2429
e 1399 2433
e 1399 2435
e 1399 2456
e 1399 2457
e 1399 2460
e 1399 2474
e 1399 2514
e 1399 2519
e 1399 2535
e 1399 2543
e 1399 2553
e 1399 2574
e 1399 2645
e 1399 2653
e 1399 2837
e 1399 2842
e 1399 2887
e 1399 2911
e 1399 2967
e 1399 2968
e 1399 2992
e 1402 2596
e 1404 2196
e 1408 2900
e 1410 2596
e 1412 2512
e 1419 1867
e 1422 2900
e 1423 2378
e 1426 2531
e 1429 1525
e 1431 2900
e 1434 2432
e 1434 2770
e 1434 2944
e 1438 2596
e 1439 2900
e 1441 2900
e 1442 1906
e 1442 2703
e 1444 2900
e 1446 2348
e 1447 1827
e 1449 2103
e 1452 2596
e 1453 2868
e 1454 1512
e 1455 2935
e 1456 1485
e 1457 2196
e 1458 2898
e 1462 2596
e 1469 1593
e 1471 2900
e 1476 2475
e 1477 2475
e 1478 2900
e 1479 2679
e 1481 1564
e 1484 2475
e 1485 1859
e 1485 2127
e 1485 2201
e 1485 2361
e 1485 2925
e 1488 2900
e 1497 1543
e 1497 2952
e 1500 2483
e 1504 1909
e 1508 2103
e 1509 2243
e 1511 2245
e 1514 1658
e 1515 2160
e 1515 2252
e 1516 2196
e 1519 2978
e 1520 2979
e 1521 2196
e 1525 2841
e 1525 2847
e 1529 1946
e 1529 2093
e 1529 2299
e 1529 2891
e 1531 1576
e 1531 2999
e 1532 2900
e 1537 2196
e 1538 2196
e 1539 2109
e 1539 2293
e 1540 2596
e 1544 2596
e 1553 2596
e 1558 2596
e 1559 2196
e 1560 2198
e 1561 2900
e 1562 2196
e 1563 2596
e 1564 2082
e 1568 1945
e 1573 2596
e 1576 2081
e 1578 2475
e 1585 1646
e 1585 2405
e 1587 2196
e 1588 2342
e 1590 2596
e 1593 2353
e 1595 2596
e 1599 2358
e 1604 2196
e 1605 2196
e 1609 2103
e 1612 2632
e 1613 2531
e 1614 2151
e 1615 1667
e 1615 2023
e 1617 2596
e 1618 2196
e 1619 2196
e 1620 2196
e 1622 2596
e 1625 2371
e 1626 2387
e 1631 2304
e 1632 2196
e 1637 2596
e 1640 2596
e 1643 2103
e 1646 1851
e 1648 2196
e 1649 2196
e 1652 1885
e 1653 1909
e 1653 2150
e 1653 2242
e 1656 2077
e 1656 2431
e 1658 2250
e 1660 2475
e 1670 2157
e 1675 2548
e 1678 2596
e 1682 2462
e 1683 2596
e 1691 2196
e 1693 2196
e 1695 2103
e 1696 2449
e 1696 2954
e 1697 2900
e 1698 1988
e 1701 2196
e 1703 2475
e 1707 2596
e 1709 2196
e 1711 2196
e 1715 2107
e 1715 2466
e 1719 1856
e 1721 2304
e 1724 2196
e 1725 1741
e 1725 2472
e 1736 2103
e 1740 2482
e 1740 2518
e 1741 2953
e 1743 2596
e 1744 2900
e 1745 2487
e 1748 2900
e 1749 1968
e 1749 2003
e 1749 2440
e 1749 2492
e 1749 2775
e 1753 2348
e 1753 2417
e 1757 2304
e 1762 2503
e 1768 2196
e 1774 2166
e 1776 2527
e 1776 2754
e 1777 2900
e 1780 2900
e 1787 2531
e 1800 2196
e 1808 2761
e 1809 2196
e 1810 2371
e 1811 2900
e 1814 1915
e 1821 2304
e 1824 2531
e 1825 2518
e 1825 2562
e 1827 2565
e 1827 2743
e 1828 2569
e 1829 1904
e 1829 2570
e 1836 2999
e 1842 1856
e 1845 2754
e 1847 2579
e 1850 2304
e 1851 2584
e 1852 2593
e 1856 1954
e 1856 2410
e 1856 2576
e 1856 2595
e 1856 2753
e 1856 2806
e 1864 2596
e 1867 2293
e 1867 2661
e 1867 2666
e 1873 2196
e 1875 2358
e 1885 2529
e 1891 2900
e 1901 2565
e 1901 2815
e 1910 2596
e 1913 2643
e 1915 2195
e 1915 2644
e 1919 2512
e 1926 2196
e 1928 2103
e 1930 2406
e 1930 2483
e 1930 2953
e 1935 2475
e 1942 2371
e 1944 2196
e 1946 2165
e 1953 2670
e 1956 2157
e 1962 2103
e 1964 2300
e 1964 2952
e 1965 2475
e 1967 2196
e 1969 2304
e 1973 2196
e 1979 2596
e 1980 2531
e 1988 2693
e 1994 2199
e 1999 2196
e 2011 2841
e 2021 2080
e 2021 2647
e 2023 2714
e 2032 2900
e 2035 2666
e 2038 2431
e 2040 2304
e 2041 2596
e 2043 2596
e 2044 2954
e 2046 2900
e 2047 2596
e 2051 2596
e 2053 2596
e 2054 2196
e 2058 2382
e 2063 2596
e 2069 2596
e 2072 2164
e 2082 2946
e 2083 2596
e 2086 2475
e 2095 2596
e 2097 2632
e 2100 2809
e 2100 2950
e 2103 2197
e 2103 2222
e 2103 2241
e 2103 2399
e 2103 2633
e 2103 2672
e 2103 2726
e 2103 2758
e 2103 2845
e 2104 2196
e 2106 2196
e 2108 2900
e 2110 2304
e 2113 2833
e 2120 2596
e 2126 2747
e 2128 2196
e 2134 2900
e 2136 2900
e 2138 2196
e 2139 2703
e 2140 2304
e 2147 2475
e 2150 2872
e 2151 2683
e 2151 2825
e 2151 2878
e 2153 2245
e 2162 2596
e 2163 2596
e 2166 2895
e 2171 2596
e 2181 2900
e 2186 2596
e 2188 2900
e 2189 2475
e 2196 2211
e 2196 2219
e 2196 2232
e 2196 2239
e 2196 2296
e 2196 2330
e 2196 2376
e 2196 2396
e 2196 2510
e 2196 2587
e 2196 2617
e 2196 2620
e 2196 2634
e 2196 2638
e 2196 2668
e 2196 2700
e 2196 2721
e 2196 2764
e 2196 2784
e 2196 2803
e 2196 2820
e 2196 2853
e 2196 2885
e 2196 2906
e 2196 2939
e 2196 2957
e 2196 2972
e 2196 2980
e 2218 2900
e 2224 2596
e 2243 2950
e 2246 2304
e 2252 2593
e 2263 2294
e 2263 2621
e 2268 2475
e 2270 2475
e 2273 2375
e 2273 2531
e 2281 2596
e 2289 2596
e 2290 2575
e 2290 2999
e 2291 2900
e 2304 2390
e 2304 2470
e 2304 2556
e 2304 2583
e 2304 2688
e 2304 2756
e 2304 2825
e 2304 2829
e 2304 2862
e 2304 2905
e 2304 2960
e 2306 2358
e 2321 2596
e 2322 2596
e 2324 2475
e 2325 2378
e 2334 2895
e 2340 2542
e 2344 2979
e 2347 2596
e 2348 2872
e 2350 2596
e 2356 2596
e 2358 2442
e 2364 2596
e 2371 2404
e 2371 2970
e 2378 2521
e 2378 2812
e 2379 2465
e 2379 2746
e 2387 2643
e 2437 2475
e 2449 2962
e 2458 2596
e 2459 2548
e 2462 2577
e 2464 2900
e 2467 2900
e 2475 2600
e 2475 2601
e 2475 2704
e 2475 2798
e 2475 2841
e 2475 2865
e 2475 2904
e 2475 2977
e 2480 2777
e 2485 2900
e 2489 2900
e 2496 2596
e 2502 2596
e 2512 2646
e 2528 2900
e 2531 2557
e 2531 2691
e 2531 2857
e 2531 2859
e 2531 2910
e 2533 2596
e 2537 2596
e 2544 2900
e 2550 2596
e 2573 2900
e 2577 2640
e 2596 2605
e 2596 2622
e 2596 2651
e 2596 2659
e 2596 2689
e 2596 2692
e 2596 2694
e 2596 2702
e 2596 2724
e 2596 2733
e 2596 2737
e 2596 2762
e 2596 2771
e 2596 2804
e 2596 2824
e 2596 2852
e 2596 2871
e 2596 2875
e 2596 2901
e 2596 2915
e 2596 2917
e 2596 2931
e 2596 2940
e 2596 2976
e 2596 2986
e 2596 2997
e 2614 2900
e 2630 2825
e 2671 2900
e 2735 2891
e 2818 2900
e 2833 2883
e 2844 2900
e 2847 2988
e 2860 2900
e 2879 2912
e 2900 2902
e 2900 2903
e 2900 2934
e 2900 2942